{
	"butterfly_whisperer": {
		"name": "Butterfly Whisperer",
		"description": "Administered 3 tickly butterfly massages.",
		"category": "Animals",
		"imageUrl": "https://childrenofur.com/assets/achievements/butterfly_whisperer.png",
		"related": [
			"apprentice-lepidopteral-manipulator",
			"master-lepidopteral-manipulator",
			"nighmystical-lepidopteral-manipulator",
			"practical-lepidopteral-manipulator"
		]
	},
	"apprentice_lepidopteral_manipulator": {
		"name": "Apprentice Lepidopteral Manipulator",
		"description": "Administered 23 adequate Butterfly massages",
		"category": "Animals",
		"imageUrl": "https://childrenofur.com/assets/achievements/apprentice_lepidopteral_manipulator.png",
		"related": [
			"butterfly-whisperer",
			"master-lepidopteral-manipulator",
			"nighmystical-lepidopteral-manipulator",
			"practical-lepidopteral-manipulator"
		]
	},
	"practical_lepidopteral_manipulator": {
		"name": "Practical Lepidopteral Manipulator",
		"description": "Administered 41 reasonably competent Butterfly massages",
		"category": "Animals",
		"imageUrl": "https://childrenofur.com/assets/achievements/practical_lepidopteral_manipulator.png",
		"related": [
			"apprentice-lepidopteral-manipulator",
			"butterfly-whisperer",
			"master-lepidopteral-manipulator",
			"nighmystical-lepidopteral-manipulator"
		]
	},
	"master_lepidopteral_manipulator": {
		"name": "Master Lepidopteral Manipulator",
		"description": "Administered 137 fairly awesome Butterfly massages",
		"category": "Animals",
		"imageUrl": "https://childrenofur.com/assets/achievements/master_lepidopteral_manipulator.png",
		"related": [
			"apprentice-lepidopteral-manipulator",
			"butterfly-whisperer",
			"nighmystical-lepidopteral-manipulator",
			"practical-lepidopteral-manipulator"
		]
	},
	"nighmystical_lepidopteral_manipulator": {
		"name": "Nigh-Mystical Lepidopteral Manipulator",
		"description": "Administered 503 borderline magical Butterfly massages",
		"category": "Animals",
		"imageUrl": "https://childrenofur.com/assets/achievements/nighmystical_lepidopteral_manipulator.png",
		"related": [
			"apprentice-lepidopteral-manipulator",
			"butterfly-whisperer",
			"master-lepidopteral-manipulator",
			"practical-lepidopteral-manipulator"
		]
	},
	"basic_larva_lover": {
		"name": "Basic Larva Lover",
		"description": "Fed three Caterpillars until they metamorphosized into Butterflies",
		"category": "Animals",
		"imageUrl": "https://childrenofur.com/assets/achievements/basic_larva_lover.png",
		"related": [
			"advanced-larva-lover",
			"intermediate-larva-lover"
		]
	},
	"intermediate_larva_lover": {
		"name": "Intermediate Larva Lover",
		"description": "Fed 23 Caterpillars until they metamorphosized into Butterflies",
		"category": "Animals",
		"imageUrl": "https://childrenofur.com/assets/achievements/intermediate_larva_lover.png",
		"related": [
			"advanced-larva-lover",
			"basic-larva-lover"
		]
	},
	"advanced_larva_lover": {
		"name": "Advanced Larva Lover",
		"description": "Fed 103 Caterpillars until they metamorphosized into Butterflies",
		"category": "Animals",
		"imageUrl": "https://childrenofur.com/assets/achievements/advanced_larva_lover.png",
		"related": [
			"basic-larva-lover",
			"intermediate-larva-lover"
		]
	},
	"all_right_hatcher": {
		"name": "All Right Hatcher",
		"description": "Incubated three Eggs, with some help from a Chicken",
		"category": "Animals",
		"imageUrl": "https://childrenofur.com/assets/achievements/all_right_hatcher.png",
		"related": [
			"best-nester",
			"incubator-par-eggcellence"
		]
	},
	"best_nester": {
		"name": "Best Nester",
		"description": "Incubated 17 Eggs, with some help from a Chicken",
		"category": "Animals",
		"imageUrl": "https://childrenofur.com/assets/achievements/best_nester.png",
		"related": [
			"all-right-hatcher",
			"incubator-par-eggcellence"
		]
	},
	"incubator_par_eggcellence": {
		"name": "Incubator Par Egg-cellence",
		"description": "Incubated 103 Eggs, with some help from a Chicken",
		"category": "Animals",
		"imageUrl": "https://childrenofur.com/assets/achievements/incubator_par_eggcellence.png",
		"related": [
			"all-right-hatcher",
			"best-nester"
		]
	},
	"hen_hugger": {
		"name": "Hen Hugger",
		"description": "Squoze 11 Chickens in a friendly sorta way.",
		"category": "Animals",
		"imageUrl": "https://childrenofur.com/assets/achievements/hen_hugger.png",
		"related": [
			"hen-hugger-deluxe",
			"hen-hugger-supremalicious",
			"the-hugginator"
		]
	},
	"hen_hugger_deluxe": {
		"name": "Hen Hugger Deluxe",
		"description": "Squoze 41 Chickens in a friendly sorta way",
		"category": "Animals",
		"imageUrl": "https://childrenofur.com/assets/achievements/hen_hugger_deluxe.png",
		"related": [
			"hen-hugger",
			"hen-hugger-supremalicious",
			"the-hugginator"
		]
	},
	"hen_hugger_supremalicious": {
		"name": "Hen Hugger Supremalicious",
		"description": "Squoze 137 Chickens in a friendly sorta way",
		"category": "Animals",
		"imageUrl": "https://childrenofur.com/assets/achievements/hen_hugger_supremalicious.png",
		"related": [
			"hen-hugger",
			"hen-hugger-deluxe",
			"the-hugginator"
		]
	},
	"the_hugginator": {
		"name": "The Hugginator",
		"description": "Squoze 503 Chickens in a too-friendly sorta way",
		"category": "Animals",
		"imageUrl": "https://childrenofur.com/assets/achievements/the_hugginator.png",
		"related": [
			"hen-hugger",
			"hen-hugger-deluxe",
			"hen-hugger-supremalicious"
		]
	},
	"chicken_tender": {
		"name": "Chicken Tender",
		"description": "Raised 3 Chicks to the full bloom of adult chickenhood",
		"category": "Animals",
		"imageUrl": "https://childrenofur.com/assets/achievements/chicken_tender.png",
		"related": [
			"capon-caterer",
			"pullet-provenderizer"
		]
	},
	"pullet_provenderizer": {
		"name": "Pullet Provenderizer",
		"description": "Nourished 23 Chicks to squawky adulthood",
		"category": "Animals",
		"imageUrl": "https://childrenofur.com/assets/achievements/pullet_provenderizer.png",
		"related": [
			"capon-caterer",
			"chicken-tender"
		]
	},
	"capon_caterer": {
		"name": "Capon Caterer",
		"description": "Nourished 103 Chicks to squawky adulthood",
		"category": "Animals",
		"imageUrl": "https://childrenofur.com/assets/achievements/capon_caterer.png",
		"related": [
			"chicken-tender",
			"pullet-provenderizer"
		]
	},
	"egg_transmutator_apprentice": {
		"name": "Egg Transmutator Apprentice",
		"description": "Seasoned 53 Eggs",
		"category": "Animals",
		"imageUrl": "https://childrenofur.com/assets/achievements/egg_transmutator_apprentice.png",
		"related": [
			"egg-transmutator-maxipro",
			"egg-transmutator-pro"
		]
	},
	"egg_transmutator_pro": {
		"name": "Egg Transmutator Pro",
		"description": "Seasoned a staggering 503 Eggs",
		"category": "Animals",
		"imageUrl": "https://childrenofur.com/assets/achievements/egg_transmutator_pro.png",
		"related": [
			"egg-transmutator-apprentice",
			"egg-transmutator-maxipro"
		]
	},
	"egg_transmutator_maxipro": {
		"name": "Egg Transmutator Maxi-Pro",
		"description": "Seasoned 2003 Eggs. That's right, 2003.",
		"category": "Animals",
		"imageUrl": "https://childrenofur.com/assets/achievements/egg_transmutator_maxipro.png",
		"related": [
			"egg-transmutator-apprentice",
			"egg-transmutator-pro"
		]
	},
	"happy_foxbrusher": {
		"name": "Happy Foxbrusher",
		"description": "Brushed 1009 fibers from the tails of foxes",
		"category": "Animals",
		"imageUrl": "https://childrenofur.com/assets/achievements/happy_foxbrusher.png",
		"related": [
			"delirious-foxbrusher",
			"maniacal-foxbrusher"
		]
	},
	"delirious_foxbrusher": {
		"name": "Delirious Foxbrusher",
		"description": "Brushed 10,009 fibers from the tails of foxes",
		"category": "Animals",
		"imageUrl": "https://childrenofur.com/assets/achievements/delirious_foxbrusher.png",
		"related": [
			"happy-foxbrusher",
			"maniacal-foxbrusher"
		]
	},
	"maniacal_foxbrusher": {
		"name": "Maniacal Foxbrusher",
		"description": "Brushed 50,003 fibers from the tails of foxes",
		"category": "Animals",
		"imageUrl": "https://childrenofur.com/assets/achievements/maniacal_foxbrusher.png",
		"related": [
			"delirious-foxbrusher",
			"happy-foxbrusher"
		]
	},
	"cunning_like_a_foxbrusher": {
		"name": "Cunning like a Foxbrusher",
		"description": "Brushed 31 foxes while they were moving",
		"category": "Animals",
		"imageUrl": "https://childrenofur.com/assets/achievements/cunning_like_a_foxbrusher.png",
		"related": [
		]
	},
	"fleet_foxer": {
		"name": "Fleet Foxer",
		"description": "Brushed the same fox 3 times in 10 seconds",
		"category": "Animals",
		"imageUrl": "https://childrenofur.com/assets/achievements/fleet_foxer.png",
		"related": [
		]
	},
	"fox_tourist": {
		"name": "Fox Tourist",
		"description": "Brushed a fox in preserves in each of the 10 regions",
		"category": "Animals",
		"imageUrl": "https://childrenofur.com/assets/achievements/fox_tourist.png",
		"related": [
		]
	},
	"fox_flurrier": {
		"name": "Fox Flurrier",
		"description": "With 9 Glitches, witnessed the simultaneous presence of three foxes in one location",
		"category": "Animals",
		"imageUrl": "https://childrenofur.com/assets/achievements/fox_flurrier.png",
		"related": [
		]
	},
	"piggy_nibbler": {
		"name": "Piggy Nibbler",
		"description": "Gently nibbled 17 piggies",
		"category": "Animals",
		"imageUrl": "https://childrenofur.com/assets/achievements/piggy_nibbler.png",
		"related": [
			"bacon-biter",
			"ham-hocker",
			"transrational-meat-aficionado"
		]
	},
	"bacon_biter": {
		"name": "Bacon Biter",
		"description": "Nibbled on 41 enthusiastically acquiescent Piggies",
		"category": "Animals",
		"imageUrl": "https://childrenofur.com/assets/achievements/bacon_biter.png",
		"related": [
			"ham-hocker",
			"piggy-nibbler",
			"transrational-meat-aficionado"
		]
	},
	"ham_hocker": {
		"name": "Ham Hocker",
		"description": "Nibbled on 137 enthusiastically acquiescent Piggies",
		"category": "Animals",
		"imageUrl": "https://childrenofur.com/assets/achievements/ham_hocker.png",
		"related": [
			"bacon-biter",
			"piggy-nibbler",
			"transrational-meat-aficionado"
		]
	},
	"transrational_meat_aficionado": {
		"name": "Trans-Rational Meat Aficionado",
		"description": "Nibbled on an impressive - and impressed - 503 Piggies",
		"category": "Animals",
		"imageUrl": "https://childrenofur.com/assets/achievements/transrational_meat_aficionado.png",
		"related": [
			"bacon-biter",
			"ham-hocker",
			"piggy-nibbler"
		]
	},
	"pork_fondler": {
		"name": "Pork Fondler",
		"description": "Firmly patted 11 piggies",
		"category": "Animals",
		"imageUrl": "https://childrenofur.com/assets/achievements/pork_fondler.png",
		"related": [
			"pork-petter-extraordinaire",
			"swine-snuggler"
		]
	},
	"swine_snuggler": {
		"name": "Swine Snuggler",
		"description": "Gave 41 piggies a thorough patdown",
		"category": "Animals",
		"imageUrl": "https://childrenofur.com/assets/achievements/swine_snuggler.png",
		"related": [
			"pork-fondler",
			"pork-petter-extraordinaire"
		]
	},
	"pork_petter_extraordinaire": {
		"name": "Pork Petter Extraordinaire",
		"description": "Petted 137 Piggies.",
		"category": "Animals",
		"imageUrl": "https://childrenofur.com/assets/achievements/pork_petter_extraordinaire.png",
		"related": [
			"pork-fondler",
			"swine-snuggler"
		]
	},
	"3rd_rate_piggy_hash_slinger": {
		"name": "3rd Rate Piggy Hash Slinger",
		"description": "Fed 3 little Piglets until they grew up into Piggies",
		"category": "Animals",
		"imageUrl": "https://childrenofur.com/assets/achievements/3rd_rate_piggy_hash_slinger.png",
		"related": [
			"2nd-rate-piggy-piggy-hash-slinger",
			"piggy-hash-slinger-1st-class"
		]
	},
	"2nd_rate_piggy_piggy_hash_slinger": {
		"name": "2nd Rate Piggy Hash Slinger",
		"description": "Fed 23 little Piglets until they grew up into Piggies",
		"category": "Animals",
		"imageUrl": "https://childrenofur.com/assets/achievements/2nd_rate_piggy_piggy_hash_slinger.png",
		"related": [
			"3rd-rate-piggy-hash-slinger",
			"piggy-hash-slinger-1st-class"
		]
	},
	"piggy_hash_slinger_1st_class": {
		"name": "Piggy Hash Slinger 1st Class",
		"description": "Fed 103 little Piglets until they grew up into Piggies",
		"category": "Animals",
		"imageUrl": "https://childrenofur.com/assets/achievements/piggy_hash_slinger_1st_class.png",
		"related": [
			"2nd-rate-piggy-piggy-hash-slinger",
			"3rd-rate-piggy-hash-slinger"
		]
	},
	"sloth_stuffer": {
		"name": "Sloth Stuffer",
		"description": "Fed a single sloth until it was full",
		"category": "Animals",
		"imageUrl": "https://childrenofur.com/assets/achievements/sloth_stuffer.png",
		"related": [
		]
	},
	"circle_crunch": {
		"name": "Circle Crunch",
		"description": "Got three sloths to eat your rods simultaneously",
		"category": "Animals",
		"imageUrl": "https://childrenofur.com/assets/achievements/circle_crunch.png",
		"related": [
		]
	},
	"common_snail_collector": {
		"name": "Common Snail Collector",
		"description": "Coaxed 101 snails from a sloth",
		"category": "Animals",
		"imageUrl": "https://childrenofur.com/assets/achievements/common_snail_collector.png",
		"related": [
			"dedicated-snail-getter",
			"giant-snail-lander"
		]
	},
	"dedicated_snail_getter": {
		"name": "Dedicated Snail Getter",
		"description": "Negotiated 1001 snails from a sloth",
		"category": "Animals",
		"imageUrl": "https://childrenofur.com/assets/achievements/dedicated_snail_getter.png",
		"related": [
			"common-snail-collector",
			"giant-snail-lander"
		]
	},
	"giant_snail_lander": {
		"name": "Giant Snail Lander",
		"description": "Landed 10009 sloth-produced snails",
		"category": "Animals",
		"imageUrl": "https://childrenofur.com/assets/achievements/giant_snail_lander.png",
		"related": [
			"common-snail-collector",
			"dedicated-snail-getter"
		]
	},
	"showered_with_sloth_dribble": {
		"name": "Showered with Sloth-Dribble",
		"description": "Spat at by a sloth 11 times",
		"category": "Animals",
		"imageUrl": "https://childrenofur.com/assets/achievements/showered_with_sloth_dribble.png",
		"related": [
		]
	},
	"bathed_in_sloth_slobber": {
		"name": "Bathed in Sloth-Slobber",
		"description": "Spat at by a sloth 101 times",
		"category": "Animals",
		"imageUrl": "https://childrenofur.com/assets/achievements/bathed_in_sloth_slobber.png",
		"related": [
		]
	}
}
