{
	"uralia_completist": {
		"name": "Uralia Completist",
		"description": "Visited every location in Uralia",
		"category": "Exploring",
		"imageUrl": "https://childrenofur.com/assets/achievements/uralia_completist.png",
		"related": [
			"alakol-completist",
			"andra-completist",
			"aranna-completist",
			"balzare-completist",
			"baqala-completist",
			"besara-completist",
			"bortola-completist",
			"brillah-completist",
			"callopee-completist",
			"cauda-completist",
			"chakra-phool-completist",
			"choru-completist",
			"drifa-completist",
			"fenneq-completist",
			"firozi-completist",
			"folivoria-completist",
			"groddle-forest-completist",
			"groddle-heights-completist",
			"groddle-meadows-completist",
			"haoma-completist",
			"haraiva-completist",
			"ilmenskie-caverns-completist",
			"ilmenskie-deeps-completist",
			"ix-completist",
			"jal-completist",
			"jethimadh-completist",
			"kajuu-completist",
			"kalavana-completist",
			"karnata-completist",
			"kloro-completist",
			"lida-completist",
			"massadoe-completist",
			"muufo-completist",
			"naraka-completist",
			"nottis-completist",
			"ormonos-completist",
			"pollokoo-completist",
			"rasana-completist",
			"roobrik-completist",
			"salatu-completist",
			"samudra-completist",
			"shimla-mirch-completist",
			"sura-completist",
			"tahli-completist",
			"tamila-completist",
			"vantalu-completist",
			"xalanga-completist",
			"zhambu-completist"
		]
	},
	"groddle_heights_completist": {
		"name": "Groddle Heights Completist",
		"description": "Visited every location in Groddle Heights.",
		"description_ts": "Visited every location in Groddle Heights. Including a couple of secret ones.",
		"category": "Exploring",
		"imageUrl": "https://childrenofur.com/assets/achievements/groddle_heights_completist.png",
		"related": [
			"alakol-completist",
			"andra-completist",
			"aranna-completist",
			"balzare-completist",
			"baqala-completist",
			"besara-completist",
			"bortola-completist",
			"brillah-completist",
			"callopee-completist",
			"cauda-completist",
			"chakra-phool-completist",
			"choru-completist",
			"drifa-completist",
			"fenneq-completist",
			"firozi-completist",
			"folivoria-completist",
			"groddle-forest-completist",
			"groddle-meadows-completist",
			"haoma-completist",
			"haraiva-completist",
			"ilmenskie-caverns-completist",
			"ilmenskie-deeps-completist",
			"ix-completist",
			"jal-completist",
			"jethimadh-completist",
			"kajuu-completist",
			"kalavana-completist",
			"karnata-completist",
			"kloro-completist",
			"lida-completist",
			"massadoe-completist",
			"muufo-completist",
			"naraka-completist",
			"nottis-completist",
			"ormonos-completist",
			"pollokoo-completist",
			"rasana-completist",
			"roobrik-completist",
			"salatu-completist",
			"samudra-completist",
			"shimla-mirch-completist",
			"sura-completist",
			"tahli-completist",
			"tamila-completist",
			"uralia-completist",
			"vantalu-completist",
			"xalanga-completist",
			"zhambu-completist"
		]
	},
	"ilmenskie_caverns_completist": {
		"name": "Ilmenskie Caverns Completist",
		"description": "Visited every location in Ilmenskie Caverns",
		"category": "Exploring",
		"imageUrl": "https://childrenofur.com/assets/achievements/ilmenskie_caverns_completist.png",
		"related": [
			"alakol-completist",
			"andra-completist",
			"aranna-completist",
			"balzare-completist",
			"baqala-completist",
			"besara-completist",
			"bortola-completist",
			"brillah-completist",
			"callopee-completist",
			"cauda-completist",
			"chakra-phool-completist",
			"choru-completist",
			"drifa-completist",
			"fenneq-completist",
			"firozi-completist",
			"folivoria-completist",
			"groddle-forest-completist",
			"groddle-heights-completist",
			"groddle-meadows-completist",
			"haoma-completist",
			"haraiva-completist",
			"ilmenskie-deeps-completist",
			"ix-completist",
			"jal-completist",
			"jethimadh-completist",
			"kajuu-completist",
			"kalavana-completist",
			"karnata-completist",
			"kloro-completist",
			"lida-completist",
			"massadoe-completist",
			"muufo-completist",
			"naraka-completist",
			"nottis-completist",
			"ormonos-completist",
			"pollokoo-completist",
			"rasana-completist",
			"roobrik-completist",
			"salatu-completist",
			"samudra-completist",
			"shimla-mirch-completist",
			"sura-completist",
			"tahli-completist",
			"tamila-completist",
			"uralia-completist",
			"vantalu-completist",
			"xalanga-completist",
			"zhambu-completist"
		]
	},
	"ix_completist": {
		"name": "Ix Completist",
		"description": "Visited every location in Ix",
		"category": "Exploring",
		"imageUrl": "https://childrenofur.com/assets/achievements/ix_completist.png",
		"related": [
			"alakol-completist",
			"andra-completist",
			"aranna-completist",
			"balzare-completist",
			"baqala-completist",
			"besara-completist",
			"bortola-completist",
			"brillah-completist",
			"callopee-completist",
			"cauda-completist",
			"chakra-phool-completist",
			"choru-completist",
			"drifa-completist",
			"fenneq-completist",
			"firozi-completist",
			"folivoria-completist",
			"groddle-forest-completist",
			"groddle-heights-completist",
			"groddle-meadows-completist",
			"haoma-completist",
			"haraiva-completist",
			"ilmenskie-caverns-completist",
			"ilmenskie-deeps-completist",
			"jal-completist",
			"jethimadh-completist",
			"kajuu-completist",
			"kalavana-completist",
			"karnata-completist",
			"kloro-completist",
			"lida-completist",
			"massadoe-completist",
			"muufo-completist",
			"naraka-completist",
			"nottis-completist",
			"ormonos-completist",
			"pollokoo-completist",
			"rasana-completist",
			"roobrik-completist",
			"salatu-completist",
			"samudra-completist",
			"shimla-mirch-completist",
			"sura-completist",
			"tahli-completist",
			"tamila-completist",
			"uralia-completist",
			"vantalu-completist",
			"xalanga-completist",
			"zhambu-completist"
		]
	},
	"alakol_completist": {
		"name": "Alakol Completist",
		"description": "Visited every location in Alakol",
		"category": "Exploring",
		"imageUrl": "https://childrenofur.com/assets/achievements/alakol_completist.png",
		"related": [
			"andra-completist",
			"aranna-completist",
			"balzare-completist",
			"baqala-completist",
			"besara-completist",
			"bortola-completist",
			"brillah-completist",
			"callopee-completist",
			"cauda-completist",
			"chakra-phool-completist",
			"choru-completist",
			"drifa-completist",
			"fenneq-completist",
			"firozi-completist",
			"folivoria-completist",
			"groddle-forest-completist",
			"groddle-heights-completist",
			"groddle-meadows-completist",
			"haoma-completist",
			"haraiva-completist",
			"ilmenskie-caverns-completist",
			"ilmenskie-deeps-completist",
			"ix-completist",
			"jal-completist",
			"jethimadh-completist",
			"kajuu-completist",
			"kalavana-completist",
			"karnata-completist",
			"kloro-completist",
			"lida-completist",
			"massadoe-completist",
			"muufo-completist",
			"naraka-completist",
			"nottis-completist",
			"ormonos-completist",
			"pollokoo-completist",
			"rasana-completist",
			"roobrik-completist",
			"salatu-completist",
			"samudra-completist",
			"shimla-mirch-completist",
			"sura-completist",
			"tahli-completist",
			"tamila-completist",
			"uralia-completist",
			"vantalu-completist",
			"xalanga-completist",
			"zhambu-completist"
		]
	},
	"andra_completist": {
		"name": "Andra Completist",
		"description": "Visited every location in Andra",
		"category": "Exploring",
		"imageUrl": "https://childrenofur.com/assets/achievements/andra_completist.png",
		"related": [
			"alakol-completist",
			"aranna-completist",
			"balzare-completist",
			"baqala-completist",
			"besara-completist",
			"bortola-completist",
			"brillah-completist",
			"callopee-completist",
			"cauda-completist",
			"chakra-phool-completist",
			"choru-completist",
			"drifa-completist",
			"fenneq-completist",
			"firozi-completist",
			"folivoria-completist",
			"groddle-forest-completist",
			"groddle-heights-completist",
			"groddle-meadows-completist",
			"haoma-completist",
			"haraiva-completist",
			"ilmenskie-caverns-completist",
			"ilmenskie-deeps-completist",
			"ix-completist",
			"jal-completist",
			"jethimadh-completist",
			"kajuu-completist",
			"kalavana-completist",
			"karnata-completist",
			"kloro-completist",
			"lida-completist",
			"massadoe-completist",
			"muufo-completist",
			"naraka-completist",
			"nottis-completist",
			"ormonos-completist",
			"pollokoo-completist",
			"rasana-completist",
			"roobrik-completist",
			"salatu-completist",
			"samudra-completist",
			"shimla-mirch-completist",
			"sura-completist",
			"tahli-completist",
			"tamila-completist",
			"uralia-completist",
			"vantalu-completist",
			"xalanga-completist",
			"zhambu-completist"
		]
	},
	"balzare_completist": {
		"name": "Balzare Completist",
		"description": "Visited every location in Balzare",
		"category": "Exploring",
		"imageUrl": "https://childrenofur.com/assets/achievements/balzare_completist.png",
		"related": [
			"alakol-completist",
			"andra-completist",
			"aranna-completist",
			"baqala-completist",
			"besara-completist",
			"bortola-completist",
			"brillah-completist",
			"callopee-completist",
			"cauda-completist",
			"chakra-phool-completist",
			"choru-completist",
			"drifa-completist",
			"fenneq-completist",
			"firozi-completist",
			"folivoria-completist",
			"groddle-forest-completist",
			"groddle-heights-completist",
			"groddle-meadows-completist",
			"haoma-completist",
			"haraiva-completist",
			"ilmenskie-caverns-completist",
			"ilmenskie-deeps-completist",
			"ix-completist",
			"jal-completist",
			"jethimadh-completist",
			"kajuu-completist",
			"kalavana-completist",
			"karnata-completist",
			"kloro-completist",
			"lida-completist",
			"massadoe-completist",
			"muufo-completist",
			"naraka-completist",
			"nottis-completist",
			"ormonos-completist",
			"pollokoo-completist",
			"rasana-completist",
			"roobrik-completist",
			"salatu-completist",
			"samudra-completist",
			"shimla-mirch-completist",
			"sura-completist",
			"tahli-completist",
			"tamila-completist",
			"uralia-completist",
			"vantalu-completist",
			"xalanga-completist",
			"zhambu-completist"
		]
	},
	"besara_completist": {
		"name": "Besara Completist",
		"description": "Visited every location in Besara",
		"category": "Exploring",
		"imageUrl": "https://childrenofur.com/assets/achievements/besara_completist.png",
		"related": [
			"alakol-completist",
			"andra-completist",
			"aranna-completist",
			"balzare-completist",
			"baqala-completist",
			"bortola-completist",
			"brillah-completist",
			"callopee-completist",
			"cauda-completist",
			"chakra-phool-completist",
			"choru-completist",
			"drifa-completist",
			"fenneq-completist",
			"firozi-completist",
			"folivoria-completist",
			"groddle-forest-completist",
			"groddle-heights-completist",
			"groddle-meadows-completist",
			"haoma-completist",
			"haraiva-completist",
			"ilmenskie-caverns-completist",
			"ilmenskie-deeps-completist",
			"ix-completist",
			"jal-completist",
			"jethimadh-completist",
			"kajuu-completist",
			"kalavana-completist",
			"karnata-completist",
			"kloro-completist",
			"lida-completist",
			"massadoe-completist",
			"muufo-completist",
			"naraka-completist",
			"nottis-completist",
			"ormonos-completist",
			"pollokoo-completist",
			"rasana-completist",
			"roobrik-completist",
			"salatu-completist",
			"samudra-completist",
			"shimla-mirch-completist",
			"sura-completist",
			"tahli-completist",
			"tamila-completist",
			"uralia-completist",
			"vantalu-completist",
			"xalanga-completist",
			"zhambu-completist"
		]
	},
	"bortola_completist": {
		"name": "Bortola Completist",
		"description": "Visited every location in Bortola",
		"category": "Exploring",
		"imageUrl": "https://childrenofur.com/assets/achievements/bortola_completist.png",
		"related": [
			"alakol-completist",
			"andra-completist",
			"aranna-completist",
			"balzare-completist",
			"baqala-completist",
			"besara-completist",
			"brillah-completist",
			"callopee-completist",
			"cauda-completist",
			"chakra-phool-completist",
			"choru-completist",
			"drifa-completist",
			"fenneq-completist",
			"firozi-completist",
			"folivoria-completist",
			"groddle-forest-completist",
			"groddle-heights-completist",
			"groddle-meadows-completist",
			"haoma-completist",
			"haraiva-completist",
			"ilmenskie-caverns-completist",
			"ilmenskie-deeps-completist",
			"ix-completist",
			"jal-completist",
			"jethimadh-completist",
			"kajuu-completist",
			"kalavana-completist",
			"karnata-completist",
			"kloro-completist",
			"lida-completist",
			"massadoe-completist",
			"muufo-completist",
			"naraka-completist",
			"nottis-completist",
			"ormonos-completist",
			"pollokoo-completist",
			"rasana-completist",
			"roobrik-completist",
			"salatu-completist",
			"samudra-completist",
			"shimla-mirch-completist",
			"sura-completist",
			"tahli-completist",
			"tamila-completist",
			"uralia-completist",
			"vantalu-completist",
			"xalanga-completist",
			"zhambu-completist"
		]
	},
	"callopee_completist": {
		"name": "Callopee Completist",
		"description": "Visited every location in Callopee",
		"category": "Exploring",
		"imageUrl": "https://childrenofur.com/assets/achievements/callopee_completist.png",
		"related": [
			"alakol-completist",
			"andra-completist",
			"aranna-completist",
			"balzare-completist",
			"baqala-completist",
			"besara-completist",
			"bortola-completist",
			"brillah-completist",
			"cauda-completist",
			"chakra-phool-completist",
			"choru-completist",
			"drifa-completist",
			"fenneq-completist",
			"firozi-completist",
			"folivoria-completist",
			"groddle-forest-completist",
			"groddle-heights-completist",
			"groddle-meadows-completist",
			"haoma-completist",
			"haraiva-completist",
			"ilmenskie-caverns-completist",
			"ilmenskie-deeps-completist",
			"ix-completist",
			"jal-completist",
			"jethimadh-completist",
			"kajuu-completist",
			"kalavana-completist",
			"karnata-completist",
			"kloro-completist",
			"lida-completist",
			"massadoe-completist",
			"muufo-completist",
			"naraka-completist",
			"nottis-completist",
			"ormonos-completist",
			"pollokoo-completist",
			"rasana-completist",
			"roobrik-completist",
			"salatu-completist",
			"samudra-completist",
			"shimla-mirch-completist",
			"sura-completist",
			"tahli-completist",
			"tamila-completist",
			"uralia-completist",
			"vantalu-completist",
			"xalanga-completist",
			"zhambu-completist"
		]
	},
	"chakra_phool_completist": {
		"name": "Chakra Phool Completist",
		"description": "Visited every location in Chakra Phool",
		"category": "Exploring",
		"imageUrl": "https://childrenofur.com/assets/achievements/chakra_phool_completist.png",
		"related": [
			"alakol-completist",
			"andra-completist",
			"aranna-completist",
			"balzare-completist",
			"baqala-completist",
			"besara-completist",
			"bortola-completist",
			"brillah-completist",
			"callopee-completist",
			"cauda-completist",
			"choru-completist",
			"drifa-completist",
			"fenneq-completist",
			"firozi-completist",
			"folivoria-completist",
			"groddle-forest-completist",
			"groddle-heights-completist",
			"groddle-meadows-completist",
			"haoma-completist",
			"haraiva-completist",
			"ilmenskie-caverns-completist",
			"ilmenskie-deeps-completist",
			"ix-completist",
			"jal-completist",
			"jethimadh-completist",
			"kajuu-completist",
			"kalavana-completist",
			"karnata-completist",
			"kloro-completist",
			"lida-completist",
			"massadoe-completist",
			"muufo-completist",
			"naraka-completist",
			"nottis-completist",
			"ormonos-completist",
			"pollokoo-completist",
			"rasana-completist",
			"roobrik-completist",
			"salatu-completist",
			"samudra-completist",
			"shimla-mirch-completist",
			"sura-completist",
			"tahli-completist",
			"tamila-completist",
			"uralia-completist",
			"vantalu-completist",
			"xalanga-completist",
			"zhambu-completist"
		]
	},
	"ilmenskie_deeps_completist": {
		"name": "Ilmenskie Deeps Completist",
		"description": "Visited every location in Ilmenskie Deeps",
		"category": "Exploring",
		"imageUrl": "https://childrenofur.com/assets/achievements/ilmenskie_deeps_completist.png",
		"related": [
			"alakol-completist",
			"andra-completist",
			"aranna-completist",
			"balzare-completist",
			"baqala-completist",
			"besara-completist",
			"bortola-completist",
			"brillah-completist",
			"callopee-completist",
			"cauda-completist",
			"chakra-phool-completist",
			"choru-completist",
			"drifa-completist",
			"fenneq-completist",
			"firozi-completist",
			"folivoria-completist",
			"groddle-forest-completist",
			"groddle-heights-completist",
			"groddle-meadows-completist",
			"haoma-completist",
			"haraiva-completist",
			"ilmenskie-caverns-completist",
			"ix-completist",
			"jal-completist",
			"jethimadh-completist",
			"kajuu-completist",
			"kalavana-completist",
			"karnata-completist",
			"kloro-completist",
			"lida-completist",
			"massadoe-completist",
			"muufo-completist",
			"naraka-completist",
			"nottis-completist",
			"ormonos-completist",
			"pollokoo-completist",
			"rasana-completist",
			"roobrik-completist",
			"salatu-completist",
			"samudra-completist",
			"shimla-mirch-completist",
			"sura-completist",
			"tahli-completist",
			"tamila-completist",
			"uralia-completist",
			"vantalu-completist",
			"xalanga-completist",
			"zhambu-completist"
		]
	},
	"jethimadh_completist": {
		"name": "Jethimadh Completist",
		"description": "Visited every location in Jethimadh",
		"category": "Exploring",
		"imageUrl": "https://childrenofur.com/assets/achievements/jethimadh_completist.png",
		"related": [
			"alakol-completist",
			"andra-completist",
			"aranna-completist",
			"balzare-completist",
			"baqala-completist",
			"besara-completist",
			"bortola-completist",
			"brillah-completist",
			"callopee-completist",
			"cauda-completist",
			"chakra-phool-completist",
			"choru-completist",
			"drifa-completist",
			"fenneq-completist",
			"firozi-completist",
			"folivoria-completist",
			"groddle-forest-completist",
			"groddle-heights-completist",
			"groddle-meadows-completist",
			"haoma-completist",
			"haraiva-completist",
			"ilmenskie-caverns-completist",
			"ilmenskie-deeps-completist",
			"ix-completist",
			"jal-completist",
			"kajuu-completist",
			"kalavana-completist",
			"karnata-completist",
			"kloro-completist",
			"lida-completist",
			"massadoe-completist",
			"muufo-completist",
			"naraka-completist",
			"nottis-completist",
			"ormonos-completist",
			"pollokoo-completist",
			"rasana-completist",
			"roobrik-completist",
			"salatu-completist",
			"samudra-completist",
			"shimla-mirch-completist",
			"sura-completist",
			"tahli-completist",
			"tamila-completist",
			"uralia-completist",
			"vantalu-completist",
			"xalanga-completist",
			"zhambu-completist"
		]
	},
	"kajuu_completist": {
		"name": "Kajuu Completist",
		"description": "Visited every location in Kajuu",
		"category": "Exploring",
		"imageUrl": "https://childrenofur.com/assets/achievements/kajuu_completist.png",
		"related": [
			"alakol-completist",
			"andra-completist",
			"aranna-completist",
			"balzare-completist",
			"baqala-completist",
			"besara-completist",
			"bortola-completist",
			"brillah-completist",
			"callopee-completist",
			"cauda-completist",
			"chakra-phool-completist",
			"choru-completist",
			"drifa-completist",
			"fenneq-completist",
			"firozi-completist",
			"folivoria-completist",
			"groddle-forest-completist",
			"groddle-heights-completist",
			"groddle-meadows-completist",
			"haoma-completist",
			"haraiva-completist",
			"ilmenskie-caverns-completist",
			"ilmenskie-deeps-completist",
			"ix-completist",
			"jal-completist",
			"jethimadh-completist",
			"kalavana-completist",
			"karnata-completist",
			"kloro-completist",
			"lida-completist",
			"massadoe-completist",
			"muufo-completist",
			"naraka-completist",
			"nottis-completist",
			"ormonos-completist",
			"pollokoo-completist",
			"rasana-completist",
			"roobrik-completist",
			"salatu-completist",
			"samudra-completist",
			"shimla-mirch-completist",
			"sura-completist",
			"tahli-completist",
			"tamila-completist",
			"uralia-completist",
			"vantalu-completist",
			"xalanga-completist",
			"zhambu-completist"
		]
	},
	"kalavana_completist": {
		"name": "Kalavana Completist",
		"description": "Visited every location in Kalavana",
		"category": "Exploring",
		"imageUrl": "https://childrenofur.com/assets/achievements/kalavana_completist.png",
		"related": [
			"alakol-completist",
			"andra-completist",
			"aranna-completist",
			"balzare-completist",
			"baqala-completist",
			"besara-completist",
			"bortola-completist",
			"brillah-completist",
			"callopee-completist",
			"cauda-completist",
			"chakra-phool-completist",
			"choru-completist",
			"drifa-completist",
			"fenneq-completist",
			"firozi-completist",
			"folivoria-completist",
			"groddle-forest-completist",
			"groddle-heights-completist",
			"groddle-meadows-completist",
			"haoma-completist",
			"haraiva-completist",
			"ilmenskie-caverns-completist",
			"ilmenskie-deeps-completist",
			"ix-completist",
			"jal-completist",
			"jethimadh-completist",
			"kajuu-completist",
			"karnata-completist",
			"kloro-completist",
			"lida-completist",
			"massadoe-completist",
			"muufo-completist",
			"naraka-completist",
			"nottis-completist",
			"ormonos-completist",
			"pollokoo-completist",
			"rasana-completist",
			"roobrik-completist",
			"salatu-completist",
			"samudra-completist",
			"shimla-mirch-completist",
			"sura-completist",
			"tahli-completist",
			"tamila-completist",
			"uralia-completist",
			"vantalu-completist",
			"xalanga-completist",
			"zhambu-completist"
		]
	},
	"lida_completist": {
		"name": "Lida Completist",
		"description": "Visited every location in Lida",
		"category": "Exploring",
		"imageUrl": "https://childrenofur.com/assets/achievements/lida_completist.png",
		"related": [
			"alakol-completist",
			"andra-completist",
			"aranna-completist",
			"balzare-completist",
			"baqala-completist",
			"besara-completist",
			"bortola-completist",
			"brillah-completist",
			"callopee-completist",
			"cauda-completist",
			"chakra-phool-completist",
			"choru-completist",
			"drifa-completist",
			"fenneq-completist",
			"firozi-completist",
			"folivoria-completist",
			"groddle-forest-completist",
			"groddle-heights-completist",
			"groddle-meadows-completist",
			"haoma-completist",
			"haraiva-completist",
			"ilmenskie-caverns-completist",
			"ilmenskie-deeps-completist",
			"ix-completist",
			"jal-completist",
			"jethimadh-completist",
			"kajuu-completist",
			"kalavana-completist",
			"karnata-completist",
			"kloro-completist",
			"massadoe-completist",
			"muufo-completist",
			"naraka-completist",
			"nottis-completist",
			"ormonos-completist",
			"pollokoo-completist",
			"rasana-completist",
			"roobrik-completist",
			"salatu-completist",
			"samudra-completist",
			"shimla-mirch-completist",
			"sura-completist",
			"tahli-completist",
			"tamila-completist",
			"uralia-completist",
			"vantalu-completist",
			"xalanga-completist",
			"zhambu-completist"
		]
	},
	"muufo_completist": {
		"name": "Muufo Completist",
		"description": "Visited every location in Muufo",
		"category": "Exploring",
		"imageUrl": "https://childrenofur.com/assets/achievements/muufo_completist.png",
		"related": [
			"alakol-completist",
			"andra-completist",
			"aranna-completist",
			"balzare-completist",
			"baqala-completist",
			"besara-completist",
			"bortola-completist",
			"brillah-completist",
			"callopee-completist",
			"cauda-completist",
			"chakra-phool-completist",
			"choru-completist",
			"drifa-completist",
			"fenneq-completist",
			"firozi-completist",
			"folivoria-completist",
			"groddle-forest-completist",
			"groddle-heights-completist",
			"groddle-meadows-completist",
			"haoma-completist",
			"haraiva-completist",
			"ilmenskie-caverns-completist",
			"ilmenskie-deeps-completist",
			"ix-completist",
			"jal-completist",
			"jethimadh-completist",
			"kajuu-completist",
			"kalavana-completist",
			"karnata-completist",
			"kloro-completist",
			"lida-completist",
			"massadoe-completist",
			"naraka-completist",
			"nottis-completist",
			"ormonos-completist",
			"pollokoo-completist",
			"rasana-completist",
			"roobrik-completist",
			"salatu-completist",
			"samudra-completist",
			"shimla-mirch-completist",
			"sura-completist",
			"tahli-completist",
			"tamila-completist",
			"uralia-completist",
			"vantalu-completist",
			"xalanga-completist",
			"zhambu-completist"
		]
	},
	"nottis_completist": {
		"name": "Nottis Completist",
		"description": "Visited every location in Nottis",
		"category": "Exploring",
		"imageUrl": "https://childrenofur.com/assets/achievements/nottis_completist.png",
		"related": [
			"alakol-completist",
			"andra-completist",
			"aranna-completist",
			"balzare-completist",
			"baqala-completist",
			"besara-completist",
			"bortola-completist",
			"brillah-completist",
			"callopee-completist",
			"cauda-completist",
			"chakra-phool-completist",
			"choru-completist",
			"drifa-completist",
			"fenneq-completist",
			"firozi-completist",
			"folivoria-completist",
			"groddle-forest-completist",
			"groddle-heights-completist",
			"groddle-meadows-completist",
			"haoma-completist",
			"haraiva-completist",
			"ilmenskie-caverns-completist",
			"ilmenskie-deeps-completist",
			"ix-completist",
			"jal-completist",
			"jethimadh-completist",
			"kajuu-completist",
			"kalavana-completist",
			"karnata-completist",
			"kloro-completist",
			"lida-completist",
			"massadoe-completist",
			"muufo-completist",
			"naraka-completist",
			"ormonos-completist",
			"pollokoo-completist",
			"rasana-completist",
			"roobrik-completist",
			"salatu-completist",
			"samudra-completist",
			"shimla-mirch-completist",
			"sura-completist",
			"tahli-completist",
			"tamila-completist",
			"uralia-completist",
			"vantalu-completist",
			"xalanga-completist",
			"zhambu-completist"
		]
	},
	"ormonos_completist": {
		"name": "Ormonos Completist",
		"description": "Visited every location in Ormonos",
		"category": "Exploring",
		"imageUrl": "https://childrenofur.com/assets/achievements/ormonos_completist.png",
		"related": [
			"alakol-completist",
			"andra-completist",
			"aranna-completist",
			"balzare-completist",
			"baqala-completist",
			"besara-completist",
			"bortola-completist",
			"brillah-completist",
			"callopee-completist",
			"cauda-completist",
			"chakra-phool-completist",
			"choru-completist",
			"drifa-completist",
			"fenneq-completist",
			"firozi-completist",
			"folivoria-completist",
			"groddle-forest-completist",
			"groddle-heights-completist",
			"groddle-meadows-completist",
			"haoma-completist",
			"haraiva-completist",
			"ilmenskie-caverns-completist",
			"ilmenskie-deeps-completist",
			"ix-completist",
			"jal-completist",
			"jethimadh-completist",
			"kajuu-completist",
			"kalavana-completist",
			"karnata-completist",
			"kloro-completist",
			"lida-completist",
			"massadoe-completist",
			"muufo-completist",
			"naraka-completist",
			"nottis-completist",
			"pollokoo-completist",
			"rasana-completist",
			"roobrik-completist",
			"salatu-completist",
			"samudra-completist",
			"shimla-mirch-completist",
			"sura-completist",
			"tahli-completist",
			"tamila-completist",
			"uralia-completist",
			"vantalu-completist",
			"xalanga-completist",
			"zhambu-completist"
		]
	},
	"pollokoo_completist": {
		"name": "Pollokoo Completist",
		"description": "Visited every location in Pollokoo",
		"category": "Exploring",
		"imageUrl": "https://childrenofur.com/assets/achievements/pollokoo_completist.png",
		"related": [
			"alakol-completist",
			"andra-completist",
			"aranna-completist",
			"balzare-completist",
			"baqala-completist",
			"besara-completist",
			"bortola-completist",
			"brillah-completist",
			"callopee-completist",
			"cauda-completist",
			"chakra-phool-completist",
			"choru-completist",
			"drifa-completist",
			"fenneq-completist",
			"firozi-completist",
			"folivoria-completist",
			"groddle-forest-completist",
			"groddle-heights-completist",
			"groddle-meadows-completist",
			"haoma-completist",
			"haraiva-completist",
			"ilmenskie-caverns-completist",
			"ilmenskie-deeps-completist",
			"ix-completist",
			"jal-completist",
			"jethimadh-completist",
			"kajuu-completist",
			"kalavana-completist",
			"karnata-completist",
			"kloro-completist",
			"lida-completist",
			"massadoe-completist",
			"muufo-completist",
			"naraka-completist",
			"nottis-completist",
			"ormonos-completist",
			"rasana-completist",
			"roobrik-completist",
			"salatu-completist",
			"samudra-completist",
			"shimla-mirch-completist",
			"sura-completist",
			"tahli-completist",
			"tamila-completist",
			"uralia-completist",
			"vantalu-completist",
			"xalanga-completist",
			"zhambu-completist"
		]
	},
	"roobrik_completist": {
		"name": "Roobrik Completist",
		"description": "Visited every location in Roobrik",
		"category": "Exploring",
		"imageUrl": "https://childrenofur.com/assets/achievements/roobrik_completist.png",
		"related": [
			"alakol-completist",
			"andra-completist",
			"aranna-completist",
			"balzare-completist",
			"baqala-completist",
			"besara-completist",
			"bortola-completist",
			"brillah-completist",
			"callopee-completist",
			"cauda-completist",
			"chakra-phool-completist",
			"choru-completist",
			"drifa-completist",
			"fenneq-completist",
			"firozi-completist",
			"folivoria-completist",
			"groddle-forest-completist",
			"groddle-heights-completist",
			"groddle-meadows-completist",
			"haoma-completist",
			"haraiva-completist",
			"ilmenskie-caverns-completist",
			"ilmenskie-deeps-completist",
			"ix-completist",
			"jal-completist",
			"jethimadh-completist",
			"kajuu-completist",
			"kalavana-completist",
			"karnata-completist",
			"kloro-completist",
			"lida-completist",
			"massadoe-completist",
			"muufo-completist",
			"naraka-completist",
			"nottis-completist",
			"ormonos-completist",
			"pollokoo-completist",
			"rasana-completist",
			"salatu-completist",
			"samudra-completist",
			"shimla-mirch-completist",
			"sura-completist",
			"tahli-completist",
			"tamila-completist",
			"uralia-completist",
			"vantalu-completist",
			"xalanga-completist",
			"zhambu-completist"
		]
	},
	"salatu_completist": {
		"name": "Salatu Completist",
		"description": "Visited every location in Salatu",
		"category": "Exploring",
		"imageUrl": "https://childrenofur.com/assets/achievements/salatu_completist.png",
		"related": [
			"alakol-completist",
			"andra-completist",
			"aranna-completist",
			"balzare-completist",
			"baqala-completist",
			"besara-completist",
			"bortola-completist",
			"brillah-completist",
			"callopee-completist",
			"cauda-completist",
			"chakra-phool-completist",
			"choru-completist",
			"drifa-completist",
			"fenneq-completist",
			"firozi-completist",
			"folivoria-completist",
			"groddle-forest-completist",
			"groddle-heights-completist",
			"groddle-meadows-completist",
			"haoma-completist",
			"haraiva-completist",
			"ilmenskie-caverns-completist",
			"ilmenskie-deeps-completist",
			"ix-completist",
			"jal-completist",
			"jethimadh-completist",
			"kajuu-completist",
			"kalavana-completist",
			"karnata-completist",
			"kloro-completist",
			"lida-completist",
			"massadoe-completist",
			"muufo-completist",
			"naraka-completist",
			"nottis-completist",
			"ormonos-completist",
			"pollokoo-completist",
			"rasana-completist",
			"roobrik-completist",
			"samudra-completist",
			"shimla-mirch-completist",
			"sura-completist",
			"tahli-completist",
			"tamila-completist",
			"uralia-completist",
			"vantalu-completist",
			"xalanga-completist",
			"zhambu-completist"
		]
	},
	"shimla_mirch_completist": {
		"name": "Shimla Mirch Completist",
		"description": "Visited every location in Shimla Mirch",
		"category": "Exploring",
		"imageUrl": "https://childrenofur.com/assets/achievements/shimla_mirch_completist.png",
		"related": [
			"alakol-completist",
			"andra-completist",
			"aranna-completist",
			"balzare-completist",
			"baqala-completist",
			"besara-completist",
			"bortola-completist",
			"brillah-completist",
			"callopee-completist",
			"cauda-completist",
			"chakra-phool-completist",
			"choru-completist",
			"drifa-completist",
			"fenneq-completist",
			"firozi-completist",
			"folivoria-completist",
			"groddle-forest-completist",
			"groddle-heights-completist",
			"groddle-meadows-completist",
			"haoma-completist",
			"haraiva-completist",
			"ilmenskie-caverns-completist",
			"ilmenskie-deeps-completist",
			"ix-completist",
			"jal-completist",
			"jethimadh-completist",
			"kajuu-completist",
			"kalavana-completist",
			"karnata-completist",
			"kloro-completist",
			"lida-completist",
			"massadoe-completist",
			"muufo-completist",
			"naraka-completist",
			"nottis-completist",
			"ormonos-completist",
			"pollokoo-completist",
			"rasana-completist",
			"roobrik-completist",
			"salatu-completist",
			"samudra-completist",
			"sura-completist",
			"tahli-completist",
			"tamila-completist",
			"uralia-completist",
			"vantalu-completist",
			"xalanga-completist",
			"zhambu-completist"
		]
	},
	"tamila_completist": {
		"name": "Tamila Completist",
		"description": "Visited every location in Tamila",
		"category": "Exploring",
		"imageUrl": "https://childrenofur.com/assets/achievements/tamila_completist.png",
		"related": [
			"alakol-completist",
			"andra-completist",
			"aranna-completist",
			"balzare-completist",
			"baqala-completist",
			"besara-completist",
			"bortola-completist",
			"brillah-completist",
			"callopee-completist",
			"cauda-completist",
			"chakra-phool-completist",
			"choru-completist",
			"drifa-completist",
			"fenneq-completist",
			"firozi-completist",
			"folivoria-completist",
			"groddle-forest-completist",
			"groddle-heights-completist",
			"groddle-meadows-completist",
			"haoma-completist",
			"haraiva-completist",
			"ilmenskie-caverns-completist",
			"ilmenskie-deeps-completist",
			"ix-completist",
			"jal-completist",
			"jethimadh-completist",
			"kajuu-completist",
			"kalavana-completist",
			"karnata-completist",
			"kloro-completist",
			"lida-completist",
			"massadoe-completist",
			"muufo-completist",
			"naraka-completist",
			"nottis-completist",
			"ormonos-completist",
			"pollokoo-completist",
			"rasana-completist",
			"roobrik-completist",
			"salatu-completist",
			"samudra-completist",
			"shimla-mirch-completist",
			"sura-completist",
			"tahli-completist",
			"uralia-completist",
			"vantalu-completist",
			"xalanga-completist",
			"zhambu-completist"
		]
	},
	"aranna_completist": {
		"name": "Aranna Completist",
		"description": "Visited every location in Aranna",
		"category": "Exploring",
		"imageUrl": "https://childrenofur.com/assets/achievements/aranna_completist.png",
		"related": [
			"alakol-completist",
			"andra-completist",
			"balzare-completist",
			"baqala-completist",
			"besara-completist",
			"bortola-completist",
			"brillah-completist",
			"callopee-completist",
			"cauda-completist",
			"chakra-phool-completist",
			"choru-completist",
			"drifa-completist",
			"fenneq-completist",
			"firozi-completist",
			"folivoria-completist",
			"groddle-forest-completist",
			"groddle-heights-completist",
			"groddle-meadows-completist",
			"haoma-completist",
			"haraiva-completist",
			"ilmenskie-caverns-completist",
			"ilmenskie-deeps-completist",
			"ix-completist",
			"jal-completist",
			"jethimadh-completist",
			"kajuu-completist",
			"kalavana-completist",
			"karnata-completist",
			"kloro-completist",
			"lida-completist",
			"massadoe-completist",
			"muufo-completist",
			"naraka-completist",
			"nottis-completist",
			"ormonos-completist",
			"pollokoo-completist",
			"rasana-completist",
			"roobrik-completist",
			"salatu-completist",
			"samudra-completist",
			"shimla-mirch-completist",
			"sura-completist",
			"tahli-completist",
			"tamila-completist",
			"uralia-completist",
			"vantalu-completist",
			"xalanga-completist",
			"zhambu-completist"
		]
	},
	"cauda_completist": {
		"name": "Cauda Completist",
		"description": "Visited every location in Cauda",
		"category": "Exploring",
		"imageUrl": "https://childrenofur.com/assets/achievements/cauda_completist.png",
		"related": [
			"alakol-completist",
			"andra-completist",
			"aranna-completist",
			"balzare-completist",
			"baqala-completist",
			"besara-completist",
			"bortola-completist",
			"brillah-completist",
			"callopee-completist",
			"chakra-phool-completist",
			"choru-completist",
			"drifa-completist",
			"fenneq-completist",
			"firozi-completist",
			"folivoria-completist",
			"groddle-forest-completist",
			"groddle-heights-completist",
			"groddle-meadows-completist",
			"haoma-completist",
			"haraiva-completist",
			"ilmenskie-caverns-completist",
			"ilmenskie-deeps-completist",
			"ix-completist",
			"jal-completist",
			"jethimadh-completist",
			"kajuu-completist",
			"kalavana-completist",
			"karnata-completist",
			"kloro-completist",
			"lida-completist",
			"massadoe-completist",
			"muufo-completist",
			"naraka-completist",
			"nottis-completist",
			"ormonos-completist",
			"pollokoo-completist",
			"rasana-completist",
			"roobrik-completist",
			"salatu-completist",
			"samudra-completist",
			"shimla-mirch-completist",
			"sura-completist",
			"tahli-completist",
			"tamila-completist",
			"uralia-completist",
			"vantalu-completist",
			"xalanga-completist",
			"zhambu-completist"
		]
	},
	"fenneq_completist": {
		"name": "Fenneq Completist",
		"description": "Visited every location in Fenneq",
		"category": "Exploring",
		"imageUrl": "https://childrenofur.com/assets/achievements/fenneq_completist.png",
		"related": [
			"alakol-completist",
			"andra-completist",
			"aranna-completist",
			"balzare-completist",
			"baqala-completist",
			"besara-completist",
			"bortola-completist",
			"brillah-completist",
			"callopee-completist",
			"cauda-completist",
			"chakra-phool-completist",
			"choru-completist",
			"drifa-completist",
			"firozi-completist",
			"folivoria-completist",
			"groddle-forest-completist",
			"groddle-heights-completist",
			"groddle-meadows-completist",
			"haoma-completist",
			"haraiva-completist",
			"ilmenskie-caverns-completist",
			"ilmenskie-deeps-completist",
			"ix-completist",
			"jal-completist",
			"jethimadh-completist",
			"kajuu-completist",
			"kalavana-completist",
			"karnata-completist",
			"kloro-completist",
			"lida-completist",
			"massadoe-completist",
			"muufo-completist",
			"naraka-completist",
			"nottis-completist",
			"ormonos-completist",
			"pollokoo-completist",
			"rasana-completist",
			"roobrik-completist",
			"salatu-completist",
			"samudra-completist",
			"shimla-mirch-completist",
			"sura-completist",
			"tahli-completist",
			"tamila-completist",
			"uralia-completist",
			"vantalu-completist",
			"xalanga-completist",
			"zhambu-completist"
		]
	},
	"firozi_completist": {
		"name": "Firozi Completist",
		"description": "Visited every location in Firozi",
		"category": "Exploring",
		"imageUrl": "https://childrenofur.com/assets/achievements/firozi_completist.png",
		"related": [
			"alakol-completist",
			"andra-completist",
			"aranna-completist",
			"balzare-completist",
			"baqala-completist",
			"besara-completist",
			"bortola-completist",
			"brillah-completist",
			"callopee-completist",
			"cauda-completist",
			"chakra-phool-completist",
			"choru-completist",
			"drifa-completist",
			"fenneq-completist",
			"folivoria-completist",
			"groddle-forest-completist",
			"groddle-heights-completist",
			"groddle-meadows-completist",
			"haoma-completist",
			"haraiva-completist",
			"ilmenskie-caverns-completist",
			"ilmenskie-deeps-completist",
			"ix-completist",
			"jal-completist",
			"jethimadh-completist",
			"kajuu-completist",
			"kalavana-completist",
			"karnata-completist",
			"kloro-completist",
			"lida-completist",
			"massadoe-completist",
			"muufo-completist",
			"naraka-completist",
			"nottis-completist",
			"ormonos-completist",
			"pollokoo-completist",
			"rasana-completist",
			"roobrik-completist",
			"salatu-completist",
			"samudra-completist",
			"shimla-mirch-completist",
			"sura-completist",
			"tahli-completist",
			"tamila-completist",
			"uralia-completist",
			"vantalu-completist",
			"xalanga-completist",
			"zhambu-completist"
		]
	},
	"folivoria_completist": {
		"name": "Folivoria Completist",
		"description": "Visited every location in Folivoria",
		"category": "Exploring",
		"imageUrl": "https://childrenofur.com/assets/achievements/folivoria_completist.png",
		"related": [
			"alakol-completist",
			"andra-completist",
			"aranna-completist",
			"balzare-completist",
			"baqala-completist",
			"besara-completist",
			"bortola-completist",
			"brillah-completist",
			"callopee-completist",
			"cauda-completist",
			"chakra-phool-completist",
			"choru-completist",
			"drifa-completist",
			"fenneq-completist",
			"firozi-completist",
			"groddle-forest-completist",
			"groddle-heights-completist",
			"groddle-meadows-completist",
			"haoma-completist",
			"haraiva-completist",
			"ilmenskie-caverns-completist",
			"ilmenskie-deeps-completist",
			"ix-completist",
			"jal-completist",
			"jethimadh-completist",
			"kajuu-completist",
			"kalavana-completist",
			"karnata-completist",
			"kloro-completist",
			"lida-completist",
			"massadoe-completist",
			"muufo-completist",
			"naraka-completist",
			"nottis-completist",
			"ormonos-completist",
			"pollokoo-completist",
			"rasana-completist",
			"roobrik-completist",
			"salatu-completist",
			"samudra-completist",
			"shimla-mirch-completist",
			"sura-completist",
			"tahli-completist",
			"tamila-completist",
			"uralia-completist",
			"vantalu-completist",
			"xalanga-completist",
			"zhambu-completist"
		]
	},
	"groddle_forest_completist": {
		"name": "Groddle Forest Completist",
		"description": "Visited every location in Groddle Forest",
		"category": "Exploring",
		"imageUrl": "https://childrenofur.com/assets/achievements/groddle_forest_completist.png",
		"related": [
			"alakol-completist",
			"andra-completist",
			"aranna-completist",
			"balzare-completist",
			"baqala-completist",
			"besara-completist",
			"bortola-completist",
			"brillah-completist",
			"callopee-completist",
			"cauda-completist",
			"chakra-phool-completist",
			"choru-completist",
			"drifa-completist",
			"fenneq-completist",
			"firozi-completist",
			"folivoria-completist",
			"groddle-heights-completist",
			"groddle-meadows-completist",
			"haoma-completist",
			"haraiva-completist",
			"ilmenskie-caverns-completist",
			"ilmenskie-deeps-completist",
			"ix-completist",
			"jal-completist",
			"jethimadh-completist",
			"kajuu-completist",
			"kalavana-completist",
			"karnata-completist",
			"kloro-completist",
			"lida-completist",
			"massadoe-completist",
			"muufo-completist",
			"naraka-completist",
			"nottis-completist",
			"ormonos-completist",
			"pollokoo-completist",
			"rasana-completist",
			"roobrik-completist",
			"salatu-completist",
			"samudra-completist",
			"shimla-mirch-completist",
			"sura-completist",
			"tahli-completist",
			"tamila-completist",
			"uralia-completist",
			"vantalu-completist",
			"xalanga-completist",
			"zhambu-completist"
		]
	},
	"groddle_meadow_completist": {
		"name": "Groddle Meadow Completist",
		"description": "Visited every location in Groddle Meadow",
		"category": "Exploring",
		"imageUrl": "https://childrenofur.com/assets/achievements/groddle_meadows_completist.png",
		"related": [
			"alakol-completist",
			"andra-completist",
			"aranna-completist",
			"balzare-completist",
			"baqala-completist",
			"besara-completist",
			"bortola-completist",
			"brillah-completist",
			"callopee-completist",
			"cauda-completist",
			"chakra-phool-completist",
			"choru-completist",
			"drifa-completist",
			"fenneq-completist",
			"firozi-completist",
			"folivoria-completist",
			"groddle-forest-completist",
			"groddle-heights-completist",
			"haoma-completist",
			"haraiva-completist",
			"ilmenskie-caverns-completist",
			"ilmenskie-deeps-completist",
			"ix-completist",
			"jal-completist",
			"jethimadh-completist",
			"kajuu-completist",
			"kalavana-completist",
			"karnata-completist",
			"kloro-completist",
			"lida-completist",
			"massadoe-completist",
			"muufo-completist",
			"naraka-completist",
			"nottis-completist",
			"ormonos-completist",
			"pollokoo-completist",
			"rasana-completist",
			"roobrik-completist",
			"salatu-completist",
			"samudra-completist",
			"shimla-mirch-completist",
			"sura-completist",
			"tahli-completist",
			"tamila-completist",
			"uralia-completist",
			"vantalu-completist",
			"xalanga-completist",
			"zhambu-completist"
		]
	},
	"haoma_completist": {
		"name": "Haoma Completist",
		"description": "Visited every location in Haoma",
		"category": "Exploring",
		"imageUrl": "https://childrenofur.com/assets/achievements/haoma_completist.png",
		"related": [
			"alakol-completist",
			"andra-completist",
			"aranna-completist",
			"balzare-completist",
			"baqala-completist",
			"besara-completist",
			"bortola-completist",
			"brillah-completist",
			"callopee-completist",
			"cauda-completist",
			"chakra-phool-completist",
			"choru-completist",
			"drifa-completist",
			"fenneq-completist",
			"firozi-completist",
			"folivoria-completist",
			"groddle-forest-completist",
			"groddle-heights-completist",
			"groddle-meadows-completist",
			"haraiva-completist",
			"ilmenskie-caverns-completist",
			"ilmenskie-deeps-completist",
			"ix-completist",
			"jal-completist",
			"jethimadh-completist",
			"kajuu-completist",
			"kalavana-completist",
			"karnata-completist",
			"kloro-completist",
			"lida-completist",
			"massadoe-completist",
			"muufo-completist",
			"naraka-completist",
			"nottis-completist",
			"ormonos-completist",
			"pollokoo-completist",
			"rasana-completist",
			"roobrik-completist",
			"salatu-completist",
			"samudra-completist",
			"shimla-mirch-completist",
			"sura-completist",
			"tahli-completist",
			"tamila-completist",
			"uralia-completist",
			"vantalu-completist",
			"xalanga-completist",
			"zhambu-completist"
		]
	},
	"haraiva_completist": {
		"name": "Haraiva Completist",
		"description": "Visited every location in Haraiva.",
		"category": "Exploring",
		"imageUrl": "https://childrenofur.com/assets/achievements/haraiva_completist.png",
		"related": [
			"alakol-completist",
			"andra-completist",
			"aranna-completist",
			"balzare-completist",
			"baqala-completist",
			"besara-completist",
			"bortola-completist",
			"brillah-completist",
			"callopee-completist",
			"cauda-completist",
			"chakra-phool-completist",
			"choru-completist",
			"drifa-completist",
			"fenneq-completist",
			"firozi-completist",
			"folivoria-completist",
			"groddle-forest-completist",
			"groddle-heights-completist",
			"groddle-meadows-completist",
			"haoma-completist",
			"ilmenskie-caverns-completist",
			"ilmenskie-deeps-completist",
			"ix-completist",
			"jal-completist",
			"jethimadh-completist",
			"kajuu-completist",
			"kalavana-completist",
			"karnata-completist",
			"kloro-completist",
			"lida-completist",
			"massadoe-completist",
			"muufo-completist",
			"naraka-completist",
			"nottis-completist",
			"ormonos-completist",
			"pollokoo-completist",
			"rasana-completist",
			"roobrik-completist",
			"salatu-completist",
			"samudra-completist",
			"shimla-mirch-completist",
			"sura-completist",
			"tahli-completist",
			"tamila-completist",
			"uralia-completist",
			"vantalu-completist",
			"xalanga-completist",
			"zhambu-completist"
		]
	},
	"karnata_completist": {
		"name": "Karnata Completist",
		"description": "Visited every location in Karnata",
		"category": "Exploring",
		"imageUrl": "https://childrenofur.com/assets/achievements/karnata_completist.png",
		"related": [
			"alakol-completist",
			"andra-completist",
			"aranna-completist",
			"balzare-completist",
			"baqala-completist",
			"besara-completist",
			"bortola-completist",
			"brillah-completist",
			"callopee-completist",
			"cauda-completist",
			"chakra-phool-completist",
			"choru-completist",
			"drifa-completist",
			"fenneq-completist",
			"firozi-completist",
			"folivoria-completist",
			"groddle-forest-completist",
			"groddle-heights-completist",
			"groddle-meadows-completist",
			"haoma-completist",
			"haraiva-completist",
			"ilmenskie-caverns-completist",
			"ilmenskie-deeps-completist",
			"ix-completist",
			"jal-completist",
			"jethimadh-completist",
			"kajuu-completist",
			"kalavana-completist",
			"kloro-completist",
			"lida-completist",
			"massadoe-completist",
			"muufo-completist",
			"naraka-completist",
			"nottis-completist",
			"ormonos-completist",
			"pollokoo-completist",
			"rasana-completist",
			"roobrik-completist",
			"salatu-completist",
			"samudra-completist",
			"shimla-mirch-completist",
			"sura-completist",
			"tahli-completist",
			"tamila-completist",
			"uralia-completist",
			"vantalu-completist",
			"xalanga-completist",
			"zhambu-completist"
		]
	},
	"kloro_completist": {
		"name": "Kloro Completist",
		"description": "Visited every location in Kloro",
		"category": "Exploring",
		"imageUrl": "https://childrenofur.com/assets/achievements/kloro_completist.png",
		"related": [
			"alakol-completist",
			"andra-completist",
			"aranna-completist",
			"balzare-completist",
			"baqala-completist",
			"besara-completist",
			"bortola-completist",
			"brillah-completist",
			"callopee-completist",
			"cauda-completist",
			"chakra-phool-completist",
			"choru-completist",
			"drifa-completist",
			"fenneq-completist",
			"firozi-completist",
			"folivoria-completist",
			"groddle-forest-completist",
			"groddle-heights-completist",
			"groddle-meadows-completist",
			"haoma-completist",
			"haraiva-completist",
			"ilmenskie-caverns-completist",
			"ilmenskie-deeps-completist",
			"ix-completist",
			"jal-completist",
			"jethimadh-completist",
			"kajuu-completist",
			"kalavana-completist",
			"karnata-completist",
			"lida-completist",
			"massadoe-completist",
			"muufo-completist",
			"naraka-completist",
			"nottis-completist",
			"ormonos-completist",
			"pollokoo-completist",
			"rasana-completist",
			"roobrik-completist",
			"salatu-completist",
			"samudra-completist",
			"shimla-mirch-completist",
			"sura-completist",
			"tahli-completist",
			"tamila-completist",
			"uralia-completist",
			"vantalu-completist",
			"xalanga-completist",
			"zhambu-completist"
		]
	},
	"massadoe_completist": {
		"name": "Massadoe Completist",
		"description": "Visited every location in Massadoe",
		"category": "Exploring",
		"imageUrl": "https://childrenofur.com/assets/achievements/massadoe_completist.png",
		"related": [
			"alakol-completist",
			"andra-completist",
			"aranna-completist",
			"balzare-completist",
			"baqala-completist",
			"besara-completist",
			"bortola-completist",
			"brillah-completist",
			"callopee-completist",
			"cauda-completist",
			"chakra-phool-completist",
			"choru-completist",
			"drifa-completist",
			"fenneq-completist",
			"firozi-completist",
			"folivoria-completist",
			"groddle-forest-completist",
			"groddle-heights-completist",
			"groddle-meadows-completist",
			"haoma-completist",
			"haraiva-completist",
			"ilmenskie-caverns-completist",
			"ilmenskie-deeps-completist",
			"ix-completist",
			"jal-completist",
			"jethimadh-completist",
			"kajuu-completist",
			"kalavana-completist",
			"karnata-completist",
			"kloro-completist",
			"lida-completist",
			"muufo-completist",
			"naraka-completist",
			"nottis-completist",
			"ormonos-completist",
			"pollokoo-completist",
			"rasana-completist",
			"roobrik-completist",
			"salatu-completist",
			"samudra-completist",
			"shimla-mirch-completist",
			"sura-completist",
			"tahli-completist",
			"tamila-completist",
			"uralia-completist",
			"vantalu-completist",
			"xalanga-completist",
			"zhambu-completist"
		]
	},
	"naraka_completist": {
		"name": "Naraka Completist",
		"description": "Visited every location in Naraka",
		"category": "Exploring",
		"imageUrl": "https://childrenofur.com/assets/achievements/naraka_completist.png",
		"related": [
			"alakol-completist",
			"andra-completist",
			"aranna-completist",
			"balzare-completist",
			"baqala-completist",
			"besara-completist",
			"bortola-completist",
			"brillah-completist",
			"callopee-completist",
			"cauda-completist",
			"chakra-phool-completist",
			"choru-completist",
			"drifa-completist",
			"fenneq-completist",
			"firozi-completist",
			"folivoria-completist",
			"groddle-forest-completist",
			"groddle-heights-completist",
			"groddle-meadows-completist",
			"haoma-completist",
			"haraiva-completist",
			"ilmenskie-caverns-completist",
			"ilmenskie-deeps-completist",
			"ix-completist",
			"jal-completist",
			"jethimadh-completist",
			"kajuu-completist",
			"kalavana-completist",
			"karnata-completist",
			"kloro-completist",
			"lida-completist",
			"massadoe-completist",
			"muufo-completist",
			"nottis-completist",
			"ormonos-completist",
			"pollokoo-completist",
			"rasana-completist",
			"roobrik-completist",
			"salatu-completist",
			"samudra-completist",
			"shimla-mirch-completist",
			"sura-completist",
			"tahli-completist",
			"tamila-completist",
			"uralia-completist",
			"vantalu-completist",
			"xalanga-completist",
			"zhambu-completist"
		]
	},
	"samudra_completist": {
		"name": "Samudra Completist",
		"description": "Visited every location in Samudra",
		"category": "Exploring",
		"imageUrl": "https://childrenofur.com/assets/achievements/samudra_completist.png",
		"related": [
			"alakol-completist",
			"andra-completist",
			"aranna-completist",
			"balzare-completist",
			"baqala-completist",
			"besara-completist",
			"bortola-completist",
			"brillah-completist",
			"callopee-completist",
			"cauda-completist",
			"chakra-phool-completist",
			"choru-completist",
			"drifa-completist",
			"fenneq-completist",
			"firozi-completist",
			"folivoria-completist",
			"groddle-forest-completist",
			"groddle-heights-completist",
			"groddle-meadows-completist",
			"haoma-completist",
			"haraiva-completist",
			"ilmenskie-caverns-completist",
			"ilmenskie-deeps-completist",
			"ix-completist",
			"jal-completist",
			"jethimadh-completist",
			"kajuu-completist",
			"kalavana-completist",
			"karnata-completist",
			"kloro-completist",
			"lida-completist",
			"massadoe-completist",
			"muufo-completist",
			"naraka-completist",
			"nottis-completist",
			"ormonos-completist",
			"pollokoo-completist",
			"rasana-completist",
			"roobrik-completist",
			"salatu-completist",
			"shimla-mirch-completist",
			"sura-completist",
			"tahli-completist",
			"tamila-completist",
			"uralia-completist",
			"vantalu-completist",
			"xalanga-completist",
			"zhambu-completist"
		]
	},
	"sura_completist": {
		"name": "Sura Completist",
		"description": "Visited every location in Sura",
		"category": "Exploring",
		"imageUrl": "https://childrenofur.com/assets/achievements/sura_completist.png",
		"related": [
			"alakol-completist",
			"andra-completist",
			"aranna-completist",
			"balzare-completist",
			"baqala-completist",
			"besara-completist",
			"bortola-completist",
			"brillah-completist",
			"callopee-completist",
			"cauda-completist",
			"chakra-phool-completist",
			"choru-completist",
			"drifa-completist",
			"fenneq-completist",
			"firozi-completist",
			"folivoria-completist",
			"groddle-forest-completist",
			"groddle-heights-completist",
			"groddle-meadows-completist",
			"haoma-completist",
			"haraiva-completist",
			"ilmenskie-caverns-completist",
			"ilmenskie-deeps-completist",
			"ix-completist",
			"jal-completist",
			"jethimadh-completist",
			"kajuu-completist",
			"kalavana-completist",
			"karnata-completist",
			"kloro-completist",
			"lida-completist",
			"massadoe-completist",
			"muufo-completist",
			"naraka-completist",
			"nottis-completist",
			"ormonos-completist",
			"pollokoo-completist",
			"rasana-completist",
			"roobrik-completist",
			"salatu-completist",
			"samudra-completist",
			"shimla-mirch-completist",
			"tahli-completist",
			"tamila-completist",
			"uralia-completist",
			"vantalu-completist",
			"xalanga-completist",
			"zhambu-completist"
		]
	},
	"tahli_completist": {
		"name": "Tahli Completist",
		"description": "Visited every location in Tahli",
		"category": "Exploring",
		"imageUrl": "https://childrenofur.com/assets/achievements/tahli_completist.png",
		"related": [
			"alakol-completist",
			"andra-completist",
			"aranna-completist",
			"balzare-completist",
			"baqala-completist",
			"besara-completist",
			"bortola-completist",
			"brillah-completist",
			"callopee-completist",
			"cauda-completist",
			"chakra-phool-completist",
			"choru-completist",
			"drifa-completist",
			"fenneq-completist",
			"firozi-completist",
			"folivoria-completist",
			"groddle-forest-completist",
			"groddle-heights-completist",
			"groddle-meadows-completist",
			"haoma-completist",
			"haraiva-completist",
			"ilmenskie-caverns-completist",
			"ilmenskie-deeps-completist",
			"ix-completist",
			"jal-completist",
			"jethimadh-completist",
			"kajuu-completist",
			"kalavana-completist",
			"karnata-completist",
			"kloro-completist",
			"lida-completist",
			"massadoe-completist",
			"muufo-completist",
			"naraka-completist",
			"nottis-completist",
			"ormonos-completist",
			"pollokoo-completist",
			"rasana-completist",
			"roobrik-completist",
			"salatu-completist",
			"samudra-completist",
			"shimla-mirch-completist",
			"sura-completist",
			"tamila-completist",
			"uralia-completist",
			"vantalu-completist",
			"xalanga-completist",
			"zhambu-completist"
		]
	},
	"vantalu_completist": {
		"name": "Vantalu Completist",
		"description": "Visited every location in Vantalu",
		"category": "Exploring",
		"imageUrl": "https://childrenofur.com/assets/achievements/vantalu_completist.png",
		"related": [
			"alakol-completist",
			"andra-completist",
			"aranna-completist",
			"balzare-completist",
			"baqala-completist",
			"besara-completist",
			"bortola-completist",
			"brillah-completist",
			"callopee-completist",
			"cauda-completist",
			"chakra-phool-completist",
			"choru-completist",
			"drifa-completist",
			"fenneq-completist",
			"firozi-completist",
			"folivoria-completist",
			"groddle-forest-completist",
			"groddle-heights-completist",
			"groddle-meadows-completist",
			"haoma-completist",
			"haraiva-completist",
			"ilmenskie-caverns-completist",
			"ilmenskie-deeps-completist",
			"ix-completist",
			"jal-completist",
			"jethimadh-completist",
			"kajuu-completist",
			"kalavana-completist",
			"karnata-completist",
			"kloro-completist",
			"lida-completist",
			"massadoe-completist",
			"muufo-completist",
			"naraka-completist",
			"nottis-completist",
			"ormonos-completist",
			"pollokoo-completist",
			"rasana-completist",
			"roobrik-completist",
			"salatu-completist",
			"samudra-completist",
			"shimla-mirch-completist",
			"sura-completist",
			"tahli-completist",
			"tamila-completist",
			"uralia-completist",
			"xalanga-completist",
			"zhambu-completist"
		]
	},
	"baqala_completist": {
		"name": "Baqala Completist",
		"description": "Visited every location in Baqala",
		"category": "Exploring",
		"imageUrl": "https://childrenofur.com/assets/achievements/baqala_completist.png",
		"related": [
			"alakol-completist",
			"andra-completist",
			"aranna-completist",
			"balzare-completist",
			"besara-completist",
			"bortola-completist",
			"brillah-completist",
			"callopee-completist",
			"cauda-completist",
			"chakra-phool-completist",
			"choru-completist",
			"drifa-completist",
			"fenneq-completist",
			"firozi-completist",
			"folivoria-completist",
			"groddle-forest-completist",
			"groddle-heights-completist",
			"groddle-meadows-completist",
			"haoma-completist",
			"haraiva-completist",
			"ilmenskie-caverns-completist",
			"ilmenskie-deeps-completist",
			"ix-completist",
			"jal-completist",
			"jethimadh-completist",
			"kajuu-completist",
			"kalavana-completist",
			"karnata-completist",
			"kloro-completist",
			"lida-completist",
			"massadoe-completist",
			"muufo-completist",
			"naraka-completist",
			"nottis-completist",
			"ormonos-completist",
			"pollokoo-completist",
			"rasana-completist",
			"roobrik-completist",
			"salatu-completist",
			"samudra-completist",
			"shimla-mirch-completist",
			"sura-completist",
			"tahli-completist",
			"tamila-completist",
			"uralia-completist",
			"vantalu-completist",
			"xalanga-completist",
			"zhambu-completist"
		]
	},
	"brillah_completist": {
		"name": "Brillah Completist",
		"description": "Visited every location in Brillah",
		"category": "Exploring",
		"imageUrl": "https://childrenofur.com/assets/achievements/brillah_completist.png",
		"related": [
			"alakol-completist",
			"andra-completist",
			"aranna-completist",
			"balzare-completist",
			"baqala-completist",
			"besara-completist",
			"bortola-completist",
			"callopee-completist",
			"cauda-completist",
			"chakra-phool-completist",
			"choru-completist",
			"drifa-completist",
			"fenneq-completist",
			"firozi-completist",
			"folivoria-completist",
			"groddle-forest-completist",
			"groddle-heights-completist",
			"groddle-meadows-completist",
			"haoma-completist",
			"haraiva-completist",
			"ilmenskie-caverns-completist",
			"ilmenskie-deeps-completist",
			"ix-completist",
			"jal-completist",
			"jethimadh-completist",
			"kajuu-completist",
			"kalavana-completist",
			"karnata-completist",
			"kloro-completist",
			"lida-completist",
			"massadoe-completist",
			"muufo-completist",
			"naraka-completist",
			"nottis-completist",
			"ormonos-completist",
			"pollokoo-completist",
			"rasana-completist",
			"roobrik-completist",
			"salatu-completist",
			"samudra-completist",
			"shimla-mirch-completist",
			"sura-completist",
			"tahli-completist",
			"tamila-completist",
			"uralia-completist",
			"vantalu-completist",
			"xalanga-completist",
			"zhambu-completist"
		]
	},
	"choru_completist": {
		"name": "Choru Completist",
		"description": "Visited every location in Choru",
		"category": "Exploring",
		"imageUrl": "https://childrenofur.com/assets/achievements/choru_completist.png",
		"related": [
			"alakol-completist",
			"andra-completist",
			"aranna-completist",
			"balzare-completist",
			"baqala-completist",
			"besara-completist",
			"bortola-completist",
			"brillah-completist",
			"callopee-completist",
			"cauda-completist",
			"chakra-phool-completist",
			"drifa-completist",
			"fenneq-completist",
			"firozi-completist",
			"folivoria-completist",
			"groddle-forest-completist",
			"groddle-heights-completist",
			"groddle-meadows-completist",
			"haoma-completist",
			"haraiva-completist",
			"ilmenskie-caverns-completist",
			"ilmenskie-deeps-completist",
			"ix-completist",
			"jal-completist",
			"jethimadh-completist",
			"kajuu-completist",
			"kalavana-completist",
			"karnata-completist",
			"kloro-completist",
			"lida-completist",
			"massadoe-completist",
			"muufo-completist",
			"naraka-completist",
			"nottis-completist",
			"ormonos-completist",
			"pollokoo-completist",
			"rasana-completist",
			"roobrik-completist",
			"salatu-completist",
			"samudra-completist",
			"shimla-mirch-completist",
			"sura-completist",
			"tahli-completist",
			"tamila-completist",
			"uralia-completist",
			"vantalu-completist",
			"xalanga-completist",
			"zhambu-completist"
		]
	},
	"drifa_completist": {
		"name": "Drifa Completist",
		"description": "Visited every location in Drifa",
		"category": "Exploring",
		"imageUrl": "https://childrenofur.com/assets/achievements/drifa_completist.png",
		"related": [
			"alakol-completist",
			"andra-completist",
			"aranna-completist",
			"balzare-completist",
			"baqala-completist",
			"besara-completist",
			"bortola-completist",
			"brillah-completist",
			"callopee-completist",
			"cauda-completist",
			"chakra-phool-completist",
			"choru-completist",
			"fenneq-completist",
			"firozi-completist",
			"folivoria-completist",
			"groddle-forest-completist",
			"groddle-heights-completist",
			"groddle-meadows-completist",
			"haoma-completist",
			"haraiva-completist",
			"ilmenskie-caverns-completist",
			"ilmenskie-deeps-completist",
			"ix-completist",
			"jal-completist",
			"jethimadh-completist",
			"kajuu-completist",
			"kalavana-completist",
			"karnata-completist",
			"kloro-completist",
			"lida-completist",
			"massadoe-completist",
			"muufo-completist",
			"naraka-completist",
			"nottis-completist",
			"ormonos-completist",
			"pollokoo-completist",
			"rasana-completist",
			"roobrik-completist",
			"salatu-completist",
			"samudra-completist",
			"shimla-mirch-completist",
			"sura-completist",
			"tahli-completist",
			"tamila-completist",
			"uralia-completist",
			"vantalu-completist",
			"xalanga-completist",
			"zhambu-completist"
		]
	},
	"rasana_completist": {
		"name": "Rasana Completist",
		"description": "Visited every location in Rasana",
		"category": "Exploring",
		"imageUrl": "https://childrenofur.com/assets/achievements/rasana_completist.png",
		"related": [
			"alakol-completist",
			"andra-completist",
			"aranna-completist",
			"balzare-completist",
			"baqala-completist",
			"besara-completist",
			"bortola-completist",
			"brillah-completist",
			"callopee-completist",
			"cauda-completist",
			"chakra-phool-completist",
			"choru-completist",
			"drifa-completist",
			"fenneq-completist",
			"firozi-completist",
			"folivoria-completist",
			"groddle-forest-completist",
			"groddle-heights-completist",
			"groddle-meadows-completist",
			"haoma-completist",
			"haraiva-completist",
			"ilmenskie-caverns-completist",
			"ilmenskie-deeps-completist",
			"ix-completist",
			"jal-completist",
			"jethimadh-completist",
			"kajuu-completist",
			"kalavana-completist",
			"karnata-completist",
			"kloro-completist",
			"lida-completist",
			"massadoe-completist",
			"muufo-completist",
			"naraka-completist",
			"nottis-completist",
			"ormonos-completist",
			"pollokoo-completist",
			"roobrik-completist",
			"salatu-completist",
			"samudra-completist",
			"shimla-mirch-completist",
			"sura-completist",
			"tahli-completist",
			"tamila-completist",
			"uralia-completist",
			"vantalu-completist",
			"xalanga-completist",
			"zhambu-completist"
		]
	},
	"xalanga_completist": {
		"name": "Xalanga Completist",
		"description": "Visited every location in Xalanga",
		"category": "Exploring",
		"imageUrl": "https://childrenofur.com/assets/achievements/xalanga_completist.png",
		"related": [
			"alakol-completist",
			"andra-completist",
			"aranna-completist",
			"balzare-completist",
			"baqala-completist",
			"besara-completist",
			"bortola-completist",
			"brillah-completist",
			"callopee-completist",
			"cauda-completist",
			"chakra-phool-completist",
			"choru-completist",
			"drifa-completist",
			"fenneq-completist",
			"firozi-completist",
			"folivoria-completist",
			"groddle-forest-completist",
			"groddle-heights-completist",
			"groddle-meadows-completist",
			"haoma-completist",
			"haraiva-completist",
			"ilmenskie-caverns-completist",
			"ilmenskie-deeps-completist",
			"ix-completist",
			"jal-completist",
			"jethimadh-completist",
			"kajuu-completist",
			"kalavana-completist",
			"karnata-completist",
			"kloro-completist",
			"lida-completist",
			"massadoe-completist",
			"muufo-completist",
			"naraka-completist",
			"nottis-completist",
			"ormonos-completist",
			"pollokoo-completist",
			"rasana-completist",
			"roobrik-completist",
			"salatu-completist",
			"samudra-completist",
			"shimla-mirch-completist",
			"sura-completist",
			"tahli-completist",
			"tamila-completist",
			"uralia-completist",
			"vantalu-completist",
			"zhambu-completist"
		]
	},
	"zhambu_completist": {
		"name": "Zhambu Completist",
		"description": "Visited every location in Zhambu",
		"category": "Exploring",
		"imageUrl": "https://childrenofur.com/assets/achievements/zhambu_completist.png",
		"related": [
			"alakol-completist",
			"andra-completist",
			"aranna-completist",
			"balzare-completist",
			"baqala-completist",
			"besara-completist",
			"bortola-completist",
			"brillah-completist",
			"callopee-completist",
			"cauda-completist",
			"chakra-phool-completist",
			"choru-completist",
			"drifa-completist",
			"fenneq-completist",
			"firozi-completist",
			"folivoria-completist",
			"groddle-forest-completist",
			"groddle-heights-completist",
			"groddle-meadows-completist",
			"haoma-completist",
			"haraiva-completist",
			"ilmenskie-caverns-completist",
			"ilmenskie-deeps-completist",
			"ix-completist",
			"jal-completist",
			"jethimadh-completist",
			"kajuu-completist",
			"kalavana-completist",
			"karnata-completist",
			"kloro-completist",
			"lida-completist",
			"massadoe-completist",
			"muufo-completist",
			"naraka-completist",
			"nottis-completist",
			"ormonos-completist",
			"pollokoo-completist",
			"rasana-completist",
			"roobrik-completist",
			"salatu-completist",
			"samudra-completist",
			"shimla-mirch-completist",
			"sura-completist",
			"tahli-completist",
			"tamila-completist",
			"uralia-completist",
			"vantalu-completist",
			"xalanga-completist"
		]
	},
	"jal_completist": {
		"name": "Jal Completist",
		"description": "Visited every location in Jal",
		"category": "Exploring",
		"imageUrl": "https://childrenofur.com/assets/achievements/jal_completist.png",
		"related": [
			"alakol-completist",
			"andra-completist",
			"aranna-completist",
			"balzare-completist",
			"baqala-completist",
			"besara-completist",
			"bortola-completist",
			"brillah-completist",
			"callopee-completist",
			"cauda-completist",
			"chakra-phool-completist",
			"choru-completist",
			"drifa-completist",
			"fenneq-completist",
			"firozi-completist",
			"folivoria-completist",
			"groddle-forest-completist",
			"groddle-heights-completist",
			"groddle-meadows-completist",
			"haoma-completist",
			"haraiva-completist",
			"ilmenskie-caverns-completist",
			"ilmenskie-deeps-completist",
			"ix-completist",
			"jethimadh-completist",
			"kajuu-completist",
			"kalavana-completist",
			"karnata-completist",
			"kloro-completist",
			"lida-completist",
			"massadoe-completist",
			"muufo-completist",
			"naraka-completist",
			"nottis-completist",
			"ormonos-completist",
			"pollokoo-completist",
			"rasana-completist",
			"roobrik-completist",
			"salatu-completist",
			"samudra-completist",
			"shimla-mirch-completist",
			"sura-completist",
			"tahli-completist",
			"tamila-completist",
			"uralia-completist",
			"vantalu-completist",
			"xalanga-completist",
			"zhambu-completist"
		]
	},
	"twinkle_toed_trap_triggerer": {
		"name": "Twinkle-Toed Trap Triggerer",
		"description": "Daintily triggered 37 Dust Traps",
		"category": "Exploring",
		"imageUrl": "https://childrenofur.com/assets/achievements/twinkle_toed_trap_triggerer.png",
		"related": [
			"dust-busting-trigger-trappist",
			"trigger-happy-trap-duster"
		]
	},
	"dust_busting_trigger_trappist": {
		"name": "Dust-Busting Trigger-Trappist",
		"description": "Trippingly triggered 127 Dust Traps",
		"category": "Exploring",
		"imageUrl": "https://childrenofur.com/assets/achievements/dust_busting_trigger_trappist.png",
		"related": [
			"trigger-happy-trap-duster",
			"twinkle-toed-trap-triggerer"
		]
	},
	"trigger_happy_trap_duster": {
		"name": "Trigger-Happy Trap-Duster",
		"description": "Nimbly triggered 503 Dust Traps",
		"category": "Exploring",
		"imageUrl": "https://childrenofur.com/assets/achievements/trigger_happy_trap_duster.png",
		"related": [
			"dust-busting-trigger-trappist",
			"twinkle-toed-trap-triggerer"
		]
	},
	"junior_ok_explorer": {
		"name": "Junior OK Explorer",
		"description": "Visited 5 new locations.",
		"category": "Exploring",
		"imageUrl": "https://childrenofur.com/assets/achievements/junior_ok_explorer.png",
		"related": [
			"globetrotter-extraordinaire",
			"rambler-first-class",
			"rambler-second-class",
			"rambler-third-class",
			"senior-ok-explorer",
			"wanderer",
			"world-class-traveler"
		]
	},
	"senior_ok_explorer": {
		"name": "Senior OK Explorer",
		"description": "Visited 23 new locations.",
		"category": "Exploring",
		"imageUrl": "https://childrenofur.com/assets/achievements/senior_ok_explorer.png",
		"related": [
			"globetrotter-extraordinaire",
			"junior-ok-explorer",
			"rambler-first-class",
			"rambler-second-class",
			"rambler-third-class",
			"wanderer",
			"world-class-traveler"
		]
	},
	"rambler_third_class": {
		"name": "Rambler, Third Class",
		"description": "Visited 61 new locations.",
		"category": "Exploring",
		"imageUrl": "https://childrenofur.com/assets/achievements/rambler_third_class.png",
		"related": [
			"globetrotter-extraordinaire",
			"junior-ok-explorer",
			"rambler-first-class",
			"rambler-second-class",
			"senior-ok-explorer",
			"wanderer",
			"world-class-traveler"
		]
	},
	"rambler_second_class": {
		"name": "Rambler, Second Class",
		"description": "Visited 127 new locations.",
		"category": "Exploring",
		"imageUrl": "https://childrenofur.com/assets/achievements/rambler_second_class.png",
		"related": [
			"globetrotter-extraordinaire",
			"junior-ok-explorer",
			"rambler-first-class",
			"rambler-third-class",
			"senior-ok-explorer",
			"wanderer",
			"world-class-traveler"
		]
	},
	"rambler_first_class": {
		"name": "Rambler, First Class",
		"description": "Visited 251 new locations.",
		"category": "Exploring",
		"imageUrl": "https://childrenofur.com/assets/achievements/rambler_first_class.png",
		"related": [
			"globetrotter-extraordinaire",
			"junior-ok-explorer",
			"rambler-second-class",
			"rambler-third-class",
			"senior-ok-explorer",
			"wanderer",
			"world-class-traveler"
		]
	},
	"wanderer": {
		"name": "Wanderer",
		"description": "Visited 503 new locations.",
		"category": "Exploring",
		"imageUrl": "https://childrenofur.com/assets/achievements/wanderer.png",
		"related": [
			"globetrotter-extraordinaire",
			"junior-ok-explorer",
			"rambler-first-class",
			"rambler-second-class",
			"rambler-third-class",
			"senior-ok-explorer",
			"world-class-traveler"
		]
	},
	"world_class_traveler": {
		"name": "World-Class Traveler",
		"description": "Visited 757 new locations.",
		"category": "Exploring",
		"imageUrl": "https://childrenofur.com/assets/achievements/world_class_traveler.png",
		"related": [
			"globetrotter-extraordinaire",
			"junior-ok-explorer",
			"rambler-first-class",
			"rambler-second-class",
			"rambler-third-class",
			"senior-ok-explorer",
			"wanderer"
		]
	},
	"globetrotter_extraordinaire": {
		"name": "Globetrotter Extraordinaire",
		"description": "Visited 1259 new locations.",
		"category": "Exploring",
		"imageUrl": "https://childrenofur.com/assets/achievements/globetrotter_extraordinaire.png",
		"related": [
			"junior-ok-explorer",
			"rambler-first-class",
			"rambler-second-class",
			"rambler-third-class",
			"senior-ok-explorer",
			"wanderer",
			"world-class-traveler"
		]
	},
	"numismatizer_leprechaun_class": {
		"name": "Numismatizer, Leprechaun Class",
		"description": "Collected 100 quoins a day for 5 game days in a row",
		"category": "Exploring",
		"imageUrl": "https://childrenofur.com/assets/achievements/numismatizer_leprechaun_class.png",
		"related": [
			"numismatizer-dragon-class",
			"numismatizer-gryphon-class"
		]
	},
	"numismatizer_gryphon_class": {
		"name": "Numismatizer, Gryphon Class",
		"description": "Collected 100 quoins a day for 11 game days in a row",
		"category": "Exploring",
		"imageUrl": "https://childrenofur.com/assets/achievements/numismatizer_gryphon_class.png",
		"related": [
			"numismatizer-dragon-class",
			"numismatizer-leprechaun-class"
		]
	},
	"numismatizer_dragon_class": {
		"name": "Numismatizer, Dragon Class",
		"description": "Collected 100 quoins a day for 17 game days in a row",
		"category": "Exploring",
		"imageUrl": "https://childrenofur.com/assets/achievements/numismatizer_dragon_class.png",
		"related": [
			"numismatizer-gryphon-class",
			"numismatizer-leprechaun-class"
		]
	},
	"subwayfarer": {
		"name": "Subwayfarer",
		"description": "Rode the subway rails 23 times",
		"category": "Exploring",
		"imageUrl": "https://childrenofur.com/assets/achievements/subwayfarer.png",
		"related": [
			"chute-jockey",
			"commuter-mug",
			"ground-hogger"
		]
	},
	"ground_hogger": {
		"name": "Ground Hogger",
		"description": "Rode the subway rails 103 times",
		"category": "Exploring",
		"imageUrl": "https://childrenofur.com/assets/achievements/ground_hogger.png",
		"related": [
			"chute-jockey",
			"commuter-mug",
			"subwayfarer"
		]
	},
	"commuter_mug": {
		"name": "Commuter Mug",
		"description": "Rode the subway rails 251 times",
		"category": "Exploring",
		"imageUrl": "https://childrenofur.com/assets/achievements/commuter_mug.png",
		"related": [
			"chute-jockey",
			"ground-hogger",
			"subwayfarer"
		]
	},
	"chute_jockey": {
		"name": "Chute Jockey",
		"description": "Rode the subway rails 503 times",
		"category": "Exploring",
		"imageUrl": "https://childrenofur.com/assets/achievements/chute_jockey.png",
		"related": [
			"commuter-mug",
			"ground-hogger",
			"subwayfarer"
		]
	},
	"licenced_teleporter_pfft_class": {
		"name": "Licensed Teleporter (Pfft Class)",
		"description": "Amazingly, attracted followers for 127 practically pain-free teleports",
		"category": "Exploring",
		"imageUrl": "https://childrenofur.com/assets/achievements/licenced_teleporter_pfft_class.png",
		"related": [
		]
	},
	"licenced_teleporter_whoa_class": {
		"name": "Licensed Teleporter (Whoa Class)",
		"description": "Teleported 503 times while towing hapless followers",
		"category": "Exploring",
		"imageUrl": "https://childrenofur.com/assets/achievements/licenced_teleporter_whoa_class.png",
		"related": [
		]
	},
	"licensed_super_gragarious_glitch_beamer": {
		"name": "Licensed Super-Gregarious Glitch-Beamer",
		"description": "Somehow convinced 11 or more foolhardy souls to follow on 13 teleports",
		"category": "Exploring",
		"imageUrl": "https://childrenofur.com/assets/achievements/licensed_super_gragarious_glitch_beamer.png",
		"related": [
		]
	},
	"licensed_teleporter_gee_class": {
		"name": "Licensed Teleporter (Gee Class)",
		"description": "Convinced 5 or more suckers, er, players to follow on 41 teleports",
		"category": "Exploring",
		"imageUrl": "https://childrenofur.com/assets/achievements/licensed_teleporter_gee_class.png",
		"related": [
		]
	},
	"unlicensed_teleporter_g_class": {
		"name": "Unlicensed Teleporter (G Class)",
		"description": "Teleported 199 times, with almost perfect reassembly every time",
		"category": "Exploring",
		"imageUrl": "https://childrenofur.com/assets/achievements/unlicensed_teleporter_g_class.png",
		"related": [
			"unlicenced-teleporter-f-class",
			"unlicensed-teleporter-n-class",
			"unlicensed-teleporter-z-class"
		]
	},
	"unlicenced_teleporter_f_class": {
		"name": "Unlicensed Teleporter (F Class)",
		"description": "Teleported 501 times, with almost perfect reassembly every time",
		"category": "Exploring",
		"imageUrl": "https://childrenofur.com/assets/achievements/unlicenced_teleporter_f_class.png",
		"related": [
			"unlicensed-teleporter-g-class",
			"unlicensed-teleporter-n-class",
			"unlicensed-teleporter-z-class"
		]
	},
	"unlicensed_teleporter_n_class": {
		"name": "Unlicensed Teleporter (N Class)",
		"description": "Teleported 2501 times, with almost perfect reassembly every time",
		"category": "Exploring",
		"imageUrl": "https://childrenofur.com/assets/achievements/unlicensed_teleporter_n_class.png",
		"related": [
			"unlicenced-teleporter-f-class",
			"unlicensed-teleporter-g-class",
			"unlicensed-teleporter-z-class"
		]
	},
	"unlicensed_teleporter_z_class": {
		"name": "Unlicensed Teleporter (Z Class)",
		"description": "Teleported 10,009 times, with almost perfect reassembly every time",
		"category": "Exploring",
		"imageUrl": "https://childrenofur.com/assets/achievements/unlicensed_teleporter_z_class.png",
		"related": [
			"unlicenced-teleporter-f-class",
			"unlicensed-teleporter-g-class",
			"unlicensed-teleporter-n-class"
		]
	}
}
