{
	"giant_lover": {
		"name": "Giant Lover",
		"description": "Created an icon for every Giant",
		"category": "Giants",
		"imageUrl": "https://childrenofur.com/assets/achievements/giant_lover.png",
		"related": []
	},
	"fledgling_crest_collector": {
		"name": "Fledgling Crest Collector",
		"description": "Earnestly earned 5 Emblems of the Giants",
		"category": "Giants",
		"imageUrl": "https://childrenofur.com/assets/achievements/fledgling_crest_collector.png",
		"related": [
			"crest-connoisseur",
			"fancy-medal-fancier",
			"significant-insignia-collector"
		]
	},
	"significant_insignia_collector": {
		"name": "Significant Insignia Collector",
		"description": "Painstakingly earned 17 Emblems of the Giants",
		"category": "Giants",
		"imageUrl": "https://childrenofur.com/assets/achievements/significant_insignia_collector.png",
		"related": [
			"crest-connoisseur",
			"fancy-medal-fancier",
			"fledgling-crest-collector"
		]
	},
	"fancy_medal_fancier": {
		"name": "Fancy Medal Fancier",
		"description": "Scrupulously earned 47 Emblems of the Giants",
		"category": "Giants",
		"imageUrl": "https://childrenofur.com/assets/achievements/fancy_medal_fancier.png",
		"related": [
			"crest-connoisseur",
			"fledgling-crest-collector",
			"significant-insignia-collector"
		]
	},
	"crest_connoisseur": {
		"name": "Crest Connoisseur",
		"description": "Exhaustively earned 151 Emblems of the Giants",
		"category": "Giants",
		"imageUrl": "https://childrenofur.com/assets/achievements/crest_connoisseur.png",
		"related": [
			"fancy-medal-fancier",
			"fledgling-crest-collector",
			"significant-insignia-collector"
		]
	},
	"first_emblem_of_alph": {
		"name": "First Emblem of Alph",
		"description": "Got your first Alph Emblem",
		"category": "Giants",
		"imageUrl": "https://childrenofur.com/assets/achievements/first_alph_emblem.png",
		"related": [
			"first-emblem-of-cosma",
			"first-emblem-of-friendly",
			"first-emblem-of-grendaline",
			"first-emblem-of-humbaba",
			"first-emblem-of-lem",
			"first-emblem-of-mab",
			"first-emblem-of-pot",
			"first-emblem-of-spriggan",
			"first-emblem-of-tii",
			"first-emblem-of-zille"
		]
	},
	"first_emblem_of_cosma": {
		"name": "First Emblem of Cosma",
		"description": "Got your first Cosma Emblem",
		"category": "Giants",
		"imageUrl": "https://childrenofur.com/assets/achievements/first_cosma_emblem.png",
		"related": [
			"first-emblem-of-alph",
			"first-emblem-of-friendly",
			"first-emblem-of-grendaline",
			"first-emblem-of-humbaba",
			"first-emblem-of-lem",
			"first-emblem-of-mab",
			"first-emblem-of-pot",
			"first-emblem-of-spriggan",
			"first-emblem-of-tii",
			"first-emblem-of-zille"
		]
	},
	"first_emblem_of_friendly": {
		"name": "First Emblem of Friendly",
		"description": "Got your first Friendly Emblem",
		"category": "Giants",
		"imageUrl": "https://childrenofur.com/assets/achievements/first_friendly_emblem.png",
		"related": [
			"first-emblem-of-alph",
			"first-emblem-of-cosma",
			"first-emblem-of-grendaline",
			"first-emblem-of-humbaba",
			"first-emblem-of-lem",
			"first-emblem-of-mab",
			"first-emblem-of-pot",
			"first-emblem-of-spriggan",
			"first-emblem-of-tii",
			"first-emblem-of-zille"
		]
	},
	"first_emblem_of_grendaline": {
		"name": "First Emblem of Grendaline",
		"description": "Got your first Grendaline Emblem",
		"category": "Giants",
		"imageUrl": "https://childrenofur.com/assets/achievements/first_grendaline_emblem.png",
		"related": [
			"first-emblem-of-alph",
			"first-emblem-of-cosma",
			"first-emblem-of-friendly",
			"first-emblem-of-humbaba",
			"first-emblem-of-lem",
			"first-emblem-of-mab",
			"first-emblem-of-pot",
			"first-emblem-of-spriggan",
			"first-emblem-of-tii",
			"first-emblem-of-zille"
		]
	},
	"first_emblem_of_humbaba": {
		"name": "First Emblem of Humbaba",
		"description": "Got your first Humbaba Emblem",
		"category": "Giants",
		"imageUrl": "https://childrenofur.com/assets/achievements/first_humbaba_emblem.png",
		"related": [
			"first-emblem-of-alph",
			"first-emblem-of-cosma",
			"first-emblem-of-friendly",
			"first-emblem-of-grendaline",
			"first-emblem-of-lem",
			"first-emblem-of-mab",
			"first-emblem-of-pot",
			"first-emblem-of-spriggan",
			"first-emblem-of-tii",
			"first-emblem-of-zille"
		]
	},
	"first_emblem_of_lem": {
		"name": "First Emblem of Lem",
		"description": "Got your first Lem Emblem",
		"category": "Giants",
		"imageUrl": "https://childrenofur.com/assets/achievements/first_lem_emblem.png",
		"related": [
			"first-emblem-of-alph",
			"first-emblem-of-cosma",
			"first-emblem-of-friendly",
			"first-emblem-of-grendaline",
			"first-emblem-of-humbaba",
			"first-emblem-of-mab",
			"first-emblem-of-pot",
			"first-emblem-of-spriggan",
			"first-emblem-of-tii",
			"first-emblem-of-zille"
		]
	},
	"first_emblem_of_mab": {
		"name": "First Emblem of Mab",
		"description": "Got your first Mab Emblem",
		"category": "Giants",
		"imageUrl": "https://childrenofur.com/assets/achievements/first_mab_emblem.png",
		"related": [
			"first-emblem-of-alph",
			"first-emblem-of-cosma",
			"first-emblem-of-friendly",
			"first-emblem-of-grendaline",
			"first-emblem-of-humbaba",
			"first-emblem-of-lem",
			"first-emblem-of-pot",
			"first-emblem-of-spriggan",
			"first-emblem-of-tii",
			"first-emblem-of-zille"
		]
	},
	"first_emblem_of_pot": {
		"name": "First Emblem of Pot",
		"description": "Got your first Pot Emblem",
		"category": "Giants",
		"imageUrl": "https://childrenofur.com/assets/achievements/first_pot_emblem.png",
		"related": [
			"first-emblem-of-alph",
			"first-emblem-of-cosma",
			"first-emblem-of-friendly",
			"first-emblem-of-grendaline",
			"first-emblem-of-humbaba",
			"first-emblem-of-lem",
			"first-emblem-of-mab",
			"first-emblem-of-spriggan",
			"first-emblem-of-tii",
			"first-emblem-of-zille"
		]
	},
	"first_emblem_of_spriggan": {
		"name": "First Emblem of Spriggan",
		"description": "Got your first Spriggan Emblem",
		"category": "Giants",
		"imageUrl": "https://childrenofur.com/assets/achievements/first_spriggan_emblem.png",
		"related": [
			"first-emblem-of-alph",
			"first-emblem-of-cosma",
			"first-emblem-of-friendly",
			"first-emblem-of-grendaline",
			"first-emblem-of-humbaba",
			"first-emblem-of-lem",
			"first-emblem-of-mab",
			"first-emblem-of-pot",
			"first-emblem-of-tii",
			"first-emblem-of-zille"
		]
	},
	"first_emblem_of_tii": {
		"name": "First Emblem of Tii",
		"description": "Got your first Tii Emblem",
		"category": "Giants",
		"imageUrl": "https://childrenofur.com/assets/achievements/first_ti_emblem.png",
		"related": [
			"first-emblem-of-alph",
			"first-emblem-of-cosma",
			"first-emblem-of-friendly",
			"first-emblem-of-grendaline",
			"first-emblem-of-humbaba",
			"first-emblem-of-lem",
			"first-emblem-of-mab",
			"first-emblem-of-pot",
			"first-emblem-of-spriggan",
			"first-emblem-of-zille"
		]
	},
	"first_emblem_of_zille": {
		"name": "First Emblem of Zille",
		"description": "Got your first Zille Emblem",
		"category": "Giants",
		"imageUrl": "https://childrenofur.com/assets/achievements/first_zille_emblem.png",
		"related": [
			"first-emblem-of-alph",
			"first-emblem-of-cosma",
			"first-emblem-of-friendly",
			"first-emblem-of-grendaline",
			"first-emblem-of-humbaba",
			"first-emblem-of-lem",
			"first-emblem-of-mab",
			"first-emblem-of-pot",
			"first-emblem-of-spriggan",
			"first-emblem-of-tii"
		]
	},
	"super_sized_sycophant": {
		"name": "Super-Sized Sycophant",
		"description": "Collected one of each Giant Emblems",
		"category": "Giants",
		"imageUrl": "https://childrenofur.com/assets/achievements/all_giant_emblems.png",
		"related": [
		]
	},
	"novice_novitiate": {
		"name": "Novice Novitiate",
		"description": "Donated to Shrines 11 times",
		"category": "Giants",
		"imageUrl": "https://childrenofur.com/assets/achievements/novice_novitiate.png",
		"related": [
			"highranking-supplicant",
			"shriner-fortyniner",
			"soso-supplicator"
		]
	},
	"soso_supplicator": {
		"name": "So-So Supplicator",
		"description": "Donated to Shrines 53 times",
		"category": "Giants",
		"imageUrl": "https://childrenofur.com/assets/achievements/soso_supplicator.png",
		"related": [
			"highranking-supplicant",
			"novice-novitiate",
			"shriner-fortyniner"
		]
	},
	"highranking_supplicant": {
		"name": "High-Ranking Supplicant",
		"description": "Donated to Shrines 251 times",
		"category": "Giants",
		"imageUrl": "https://childrenofur.com/assets/achievements/highranking_supplicant.png",
		"related": [
			"novice-novitiate",
			"shriner-fortyniner",
			"soso-supplicator"
		]
	},
	"shriner_fortyniner": {
		"name": "Shriner Forty-Niner",
		"description": "Dug deep and donated to Shrines 1049 times",
		"category": "Giants",
		"imageUrl": "https://childrenofur.com/assets/achievements/shriner_fortyniner.png",
		"related": [
			"highranking-supplicant",
			"novice-novitiate",
			"soso-supplicator"
		]
	},
	"spent_first_emblem_of_alph": {
		"name": "Spent First Emblem of Alph",
		"description": "Gained the ability to scale the heights of tinkery with Tinkering IV",
		"category": "Giants",
		"imageUrl": "https://childrenofur.com/assets/achievements/emblem_skill_unlock_alph_1.png",
		"related": [
			"spent-first-emblem-of-cosma",
			"spent-first-emblem-of-friendly",
			"spent-first-emblem-of-grendaline",
			"spent-first-emblem-of-humbaba",
			"spent-first-emblem-of-lem",
			"spent-first-emblem-of-mab",
			"spent-first-emblem-of-pot",
			"spent-first-emblem-of-spriggan",
			"spent-first-emblem-of-tii",
			"spent-first-emblem-of-zille"
		]
	},
	"spent_first_emblem_of_cosma": {
		"name": "Spent First Emblem of Cosma",
		"description": "Earned the ability to acquire Meditative Arts III, the serenest of all the Meditative arts",
		"category": "Giants",
		"imageUrl": "https://childrenofur.com/assets/achievements/emblem_skill_unlock_cosma_1.png",
		"related": [
			"spent-first-emblem-of-alph",
			"spent-first-emblem-of-friendly",
			"spent-first-emblem-of-grendaline",
			"spent-first-emblem-of-humbaba",
			"spent-first-emblem-of-lem",
			"spent-first-emblem-of-mab",
			"spent-first-emblem-of-pot",
			"spent-first-emblem-of-spriggan",
			"spent-first-emblem-of-tii",
			"spent-first-emblem-of-zille"
		]
	},
	"spent_first_emblem_of_friendly": {
		"name": "Spent First Emblem of Friendly",
		"description": "Earned the right to learn the hallowed secrets of Cocktail Crafting II",
		"category": "Giants",
		"imageUrl": "https://childrenofur.com/assets/achievements/emblem_skill_unlock_friendly_1.png",
		"related": [
			"spent-first-emblem-of-alph",
			"spent-first-emblem-of-cosma",
			"spent-first-emblem-of-grendaline",
			"spent-first-emblem-of-humbaba",
			"spent-first-emblem-of-lem",
			"spent-first-emblem-of-mab",
			"spent-first-emblem-of-pot",
			"spent-first-emblem-of-spriggan",
			"spent-first-emblem-of-tii",
			"spent-first-emblem-of-zille"
		]
	},
	"spent_first_emblem_of_grendaline": {
		"name": "Spent First Emblem of Grendaline",
		"description": "Earned the privilege of learning Light Green Thumb III",
		"category": "Giants",
		"imageUrl": "https://childrenofur.com/assets/achievements/emblem_skill_unlock_grendaline_1.png",
		"related": [
			"spent-first-emblem-of-alph",
			"spent-first-emblem-of-cosma",
			"spent-first-emblem-of-friendly",
			"spent-first-emblem-of-humbaba",
			"spent-first-emblem-of-lem",
			"spent-first-emblem-of-mab",
			"spent-first-emblem-of-pot",
			"spent-first-emblem-of-spriggan",
			"spent-first-emblem-of-tii",
			"spent-first-emblem-of-zille"
		]
	},
	"spent_first_emblem_of_humbaba": {
		"name": "Spent First Emblem of Humbaba",
		"description": "Earned the right to learn the slightly whiffy secrets of Animal Kinship VI",
		"category": "Giants",
		"imageUrl": "https://childrenofur.com/assets/achievements/emblem_skill_unlock_humbaba_1.png",
		"related": [
			"spent-first-emblem-of-alph",
			"spent-first-emblem-of-cosma",
			"spent-first-emblem-of-friendly",
			"spent-first-emblem-of-grendaline",
			"spent-first-emblem-of-lem",
			"spent-first-emblem-of-mab",
			"spent-first-emblem-of-pot",
			"spent-first-emblem-of-spriggan",
			"spent-first-emblem-of-tii",
			"spent-first-emblem-of-zille"
		]
	},
	"spent_first_emblem_of_lem": {
		"name": "Spent First Emblem of Lem",
		"description": "Gained the ability to learn Teleportation III",
		"category": "Giants",
		"imageUrl": "https://childrenofur.com/assets/achievements/emblem_skill_unlock_lem_1.png",
		"related": [
			"spent-first-emblem-of-alph",
			"spent-first-emblem-of-cosma",
			"spent-first-emblem-of-friendly",
			"spent-first-emblem-of-grendaline",
			"spent-first-emblem-of-humbaba",
			"spent-first-emblem-of-mab",
			"spent-first-emblem-of-pot",
			"spent-first-emblem-of-spriggan",
			"spent-first-emblem-of-tii",
			"spent-first-emblem-of-zille"
		]
	},
	"spent_first_emblem_of_mab": {
		"name": "Spent First Emblem of Mab",
		"description": "Earned the privilege of learning Soil Appreciation IV",
		"category": "Giants",
		"imageUrl": "https://childrenofur.com/assets/achievements/emblem_skill_unlock_mab_1.png",
		"related": [
			"spent-first-emblem-of-alph",
			"spent-first-emblem-of-cosma",
			"spent-first-emblem-of-friendly",
			"spent-first-emblem-of-grendaline",
			"spent-first-emblem-of-humbaba",
			"spent-first-emblem-of-lem",
			"spent-first-emblem-of-pot",
			"spent-first-emblem-of-spriggan",
			"spent-first-emblem-of-tii",
			"spent-first-emblem-of-zille"
		]
	},
	"spent_first_emblem_of_pot": {
		"name": "Spent First Emblem of Pot",
		"description": "Gained the right to learn the savory secrets of Master Chef II",
		"category": "Giants",
		"imageUrl": "https://childrenofur.com/assets/achievements/emblem_skill_unlock_pot_1.png",
		"related": [
			"spent-first-emblem-of-alph",
			"spent-first-emblem-of-cosma",
			"spent-first-emblem-of-friendly",
			"spent-first-emblem-of-grendaline",
			"spent-first-emblem-of-humbaba",
			"spent-first-emblem-of-lem",
			"spent-first-emblem-of-mab",
			"spent-first-emblem-of-spriggan",
			"spent-first-emblem-of-tii",
			"spent-first-emblem-of-zille"
		]
	},
	"spent_first_emblem_of_spriggan": {
		"name": "Spent First Emblem of Spriggan",
		"description": "Gained the ability to learn the verdant arts of Arborology III",
		"category": "Giants",
		"imageUrl": "https://childrenofur.com/assets/achievements/emblem_skill_unlock_spriggan_1.png",
		"related": [
			"spent-first-emblem-of-alph",
			"spent-first-emblem-of-cosma",
			"spent-first-emblem-of-friendly",
			"spent-first-emblem-of-grendaline",
			"spent-first-emblem-of-humbaba",
			"spent-first-emblem-of-lem",
			"spent-first-emblem-of-mab",
			"spent-first-emblem-of-pot",
			"spent-first-emblem-of-tii",
			"spent-first-emblem-of-zille"
		]
	},
	"spent_first_emblem_of_tii": {
		"name": "Spent First Emblem of Tii",
		"description": "Earned the right to learn Intermediate Admixing",
		"category": "Giants",
		"imageUrl": "https://childrenofur.com/assets/achievements/emblem_skill_unlock_ti_1.png",
		"related": [
			"spent-first-emblem-of-alph",
			"spent-first-emblem-of-cosma",
			"spent-first-emblem-of-friendly",
			"spent-first-emblem-of-grendaline",
			"spent-first-emblem-of-humbaba",
			"spent-first-emblem-of-lem",
			"spent-first-emblem-of-mab",
			"spent-first-emblem-of-pot",
			"spent-first-emblem-of-spriggan",
			"spent-first-emblem-of-zille"
		]
	},
	"spent_first_emblem_of_zille": {
		"name": "Spent First Emblem of Zille",
		"description": "Gained the power to learn Mining III, the penultimate Mining skill",
		"category": "Giants",
		"imageUrl": "https://childrenofur.com/assets/achievements/emblem_skill_unlock_zille_1.png",
		"related": [
			"spent-first-emblem-of-alph",
			"spent-first-emblem-of-cosma",
			"spent-first-emblem-of-friendly",
			"spent-first-emblem-of-grendaline",
			"spent-first-emblem-of-humbaba",
			"spent-first-emblem-of-lem",
			"spent-first-emblem-of-mab",
			"spent-first-emblem-of-pot",
			"spent-first-emblem-of-spriggan",
			"spent-first-emblem-of-tii"
		]
	}
}
